cores/cps15/ver/game/punisher.vcd
$comment
TOOL:	simvision	15.20-s050
$end

$date
    Nov 23, 2020 16:43:32
$end

$timescale
    1ps
$end


$scope module mist_test $end

$scope module UUT $end

$scope module u_game $end

$scope module u_sound $end
$var wire 24 ! cpu2dsp_s [23:0] $end
$upscope $end

$upscope $end

$upscope $end

$upscope $end

$enddefinitions $end
#8453178258963
$dumpvars
b110110000000000000000001 !
$end
#8489662990911
b101110100000000000000000 !
#8489698120407
b1100000000000000000 !
#8489740000767
b100000000000000000 !
#8489781881127
b100000000000000100100000 !
#8490041039295
b101110110000000000000000 !
#8490072543327
b11100000000000000000 !
#8490114423687
b10100000000000000000 !
#8490156304047
b100000010000000100100000 !
#8490415712247
b101111000000000000000000 !
#8490447216279
b101100000000000000000 !
#8490489096639
b100100000000000000000 !
#8490530976999
b100000100000000100100000 !
#8490790135167
b101111010000000000000000 !
#8490821639199
b111100000000000000000 !
#8490863519559
b110100000000000000000 !
#8490905399919
b100000110000000100100000 !
#8491164683103
b101111100000000000000000 !
#8491196312151
b1001100000000000000000 !
#8491238192511
b1000100000000000000000 !
#8491280072871
b100001000000000100100000 !
#8491539106023
b101111110000000000000000 !
#8491570610055
b1011100000000000000000 !
#8491612490415
b1010100000000000000000 !
#8491654370775
b100001010000000100100000 !
#8491913403927
b110000000000000000000000 !
#8491948533423
b1101100000000000000000 !
#8491990413783
b1100100000000000000000 !
#8492028918711
b100001100000000100100000 !
#8492287951863
b110000010000000000000000 !
#8492323081359
b1111100000000000000000 !
#8492364961719
b1110100000000000000000 !
#8492406967095
b100001110000000100100000 !
#8492666250279
b110000100000000000000000 !
#8492697879327
b10001100000000000000000 !
#8492739759687
b10000100000000000000000 !
#8492781640047
b100010000000000100100000 !
#8493040673199
b110000110000000000000000 !
#8493072177231
b10011100000000000000000 !
#8493123683823
b10010100000000000000000 !
#8493154687791
b100010010000000100100000 !
#8493413845959
b110001000000000000000000 !
#8493448975455
b10101100000000000000000 !
#8493487230351
b10100100000000000000000 !
#8493529110711
b100010100000000100100000 !
#8493788143863
b110001010000000000000000 !
#8493823273359
b10111100000000000000000 !
#8493865153719
b10110100000000000000000 !
#8493907034079
b100010110000000100100000 !
#8494394096415
b110010010000000000000000 !
#8494414724055
b11111100000000000000000 !
#8494445728023
b11110100000000000000000 !
#8494487608383
b100011110000000100100000 !
#8501813045919
b10100000000000000000 !
#8501865802671
b10011011100011010100 !
#8501906307855
b11011111110100101010 !
#8501946938055
b11000010100101100110 !
#8501989318479
b1000000000001001 !
#8502794171487
b10100000000000000000 !
#8502823175199
b100100110010011111111111 !
#8502866680767
b110110010000011111111111 !
#8502906810903
b101110110000110110101000 !
#8502947316087
b10011011100011010100 !
#8502991571751
b10111000000000000000 !
#8503593898839
b11100000001010110110 !
#8503692411447
b10100000101111110000 !
#8504228355039
b100100000000000000000 !
#8504255733543
b100011010110110100110 !
#8504281736871
b101011111100001011010 !
#8504324867391
b101000011011011001001 !
#8504363622351
b10001000000000001000 !
#8505069962751
b100100000000000000000 !
#8505126720015
b100100110010011111111111 !
#8505155723727
b110110010000011111111111 !
#8505199354311
b101111000001000101110100 !
#8505239859495
b100011010110110100110 !
#8505280364679
b100111000000000000000 !
#8505882316719
b101100000010010001111 !
#8505981329391
b100100000111100100000 !
#8506700671455
b110100000000000000000 !
#8506738926351
b110011000000000000000 !
#8506783056999
b111011100101101000011 !
#8506822562055
b111000011100011010010 !
#8506864942479
b100001000000000000111 !
#8507025963087
b100000110000000100011000 !
#8507413637703
b110100000000000000000 !
#8507449892343
b100100110010011111111111 !
#8507489772447
b110110010000011111111111 !
#8507533403031
b101111010000010010100100 !
#8507573908215
b110011000000000000000 !
#8507614413399
b110111000000000000000 !
#8508216990519
b111100000000011110111 !
#8508315503127
b110100000101010100000 !
#8508523654767
b1000100000000000000000 !
#8508572786055
b1000011000000000000000 !
#8508616916703
b1001011100111101011100 !
#8508656421759
b1001000001000101101110 !
#8508698802183
b110001000000000000101 !
#8508952334631
b100001000000000100110000 !
#8509325632407
b1010100000000000000000 !
#8509367512767
b1010010100010100001011 !
#8509408142967
b1011010111110110110101 !
#8509447648023
b1011000001001001000001 !
#8509490028447
b1000001000000000001010 !
#8509754187255
b100001010000000100010000 !
#8510571666879
b1100100000000000000000 !
#8510617172703
b1100011000000000000000 !
#8510657927919
b1101011100101101000011 !
#8510701058439
b1101000011100011010010 !
#8510739813399
b1010001000000000000111 !
#8510900959023
b100001100000000100101000 !
#8511288008559
b1100100000000000000000 !
#8511324263199
b100100110010011111111111 !
#8511367768767
b110110010000011111111111 !
#8511408273951
b110000000000010010100100 !
#8511448779135
b1100011000000000000000 !
#8511489409335
b1100111000000000000000 !
#8512091611407
b1101100000000100010010 !
#8512190249031
b1100100000100001110000 !
#8512496163183
b1110100000000000000000 !
#8512534418079
b1110010000000000000000 !
#8512574923263
b1111010100101011001001 !
#8512618053783
b1111000000000000001101 !
#8512656808743
b1100001000000000000111 !
#8513384401863
b1110100000000000000000 !
#8513409780111
b100100110010011111111111 !
#8513449660215
b110110010000011111111111 !
#8513489665335
b110000010000101001010000 !
#8513533795983
b1110010000000000000000 !
#8513574301167
b1110111000000000000000 !
#8514177503367
b1111100000001010110110 !
#8514276516039
b1110100000110010110000 !
#8514903721311
b10000100000000000000000 !
#8514949227135
b10000011000000000000000 !
#8514993357783
b10001011011110000100100 !
#8515032862839
b10001000000000000001100 !
#8515075243263
b1110001000000000010011 !
#8515800461079
b10010100000000000000000 !
#8515828839711
b10010011101101100000110 !
#8515865719431
b10011011111111101111001 !
#8515908849951
b10011000000000000001101 !
#8515951230375
b10000001000000000000100 !
#8516285148111
b100010100000000100010010 !
#8516707952223
b10100100000000000000000 !
#8516742581655
b10100011110111001011110 !
#8516783086839
b10101011111111101011111 !
#8516826217359
b10101000000000000001010 !
#8516868597783
b10010001000000000000010 !
#8519412548367
b11100000001010110110 !
#8519511311007
b10100000101111110000 !
#8520286535223
b101100000010010001111 !
#8520385047831
b100100000111100100000 !
#8521172148567
b111100000000011110111 !
#8521271036223
b110100000101010100000 !
#8522270414127
b1101100000000100010010 !
#8522368926735
b1100100000100001110000 !
#8523144150951
b1111100000001010110110 !
#8523242913591
b1110100000110010110000 !
#8534003040711
b11100000001010110110 !
#8534101803351
b10100000101111110000 !
#8534855524815
b101100000010010001111 !
#8534954287455
b100100000111100100000 !
#8535699382815
b111100000000011110111 !
#8535798520503
b110100000101010100000 !
#8536776645687
b1101100000000100010010 !
#8536875283311
b1100100000100001110000 !
#8537680636383
b1111100000001010110110 !
#8537779148991
b1110100000110010110000 !
#8550006588903
b11100000001010110110 !
#8550105101511
b10100000101111110000 !
#8550875200071
b101100000010000100011 !
#8550973712679
b100100000111100100000 !
#8551716932799
b111100000000011110111 !
#8551815570423
b110100000101010100000 !
#8552795070783
b1101100000000100010010 !
#8552894583519
b1100100000100001110000 !
#8553659431407
b1111100000001010110110 !
#8553758444079
b1110100000110010110000 !
#8566005386487
b11100000001010110110 !
#8566104024111
b10100000101111110000 !
#8566840493367
b101100000001110110110 !
#8566939005975
b100100000111100100000 !
#8567683601271
b111100000000011110111 !
#8567782488927
b110100000101010100000 !
#8568760489095
b1101100000000100010010 !
#8568859251735
b1100100000100001110000 !
#8569626849975
b1111100000001010110110 !
#8569725612615
b1110100000110010110000 !
#8582008434615
b11100000001010110110 !
#8582106947223
b10100000101111110000 !
#8582842166319
b101100000001101001010 !
#8582940928959
b100100000111100100000 !
#8583684649143
b111100000000011110111 !
#8583783161751
b110100000101010100000 !
#8584761161919
b1101100000000100010010 !
#8584860049575
b1100100000100001110000 !
#8585626022607
b1111100000001010110110 !
#8585724910263
b1110100000110010110000 !
#8598011107695
b11100000001010110110 !
#8598110120367
b10100000101111110000 !
#8598995483679
b111100000000011110111 !
#8599094246319
b110100000101010100000 !
#8600070621279
b1101100000000100010010 !
#8600169508935
b1100100000100001110000 !
#8600913104103
b1111100000001010110110 !
#8601012366807
b1110100000110010110000 !
#8614011030423
b11100000001010110110 !
#8614109543031
b10100000101111110000 !
#8614845762255
b101100000001011011101 !
#8614944274863
b100100000111100100000 !
#8615687619999
b111100000000011110111 !
#8615786132607
b110100000101010100000 !
#8616763507695
b1101100000000100010010 !
#8616862270335
b1100100000100001110000 !
#8617626868191
b1111100000001010110110 !
#8617725380799
b1110100000110010110000 !
#8630015828775
b11100000001010110110 !
#8630114466399
b10100000101111110000 !
#8630849810511
b101100000001001110001 !
#8630948448135
b100100000111100100000 !
#8631693168447
b111100000000011110111 !
#8631791681055
b110100000101010100000 !
#8632768431063
b1101100000000100010010 !
#8632866943671
b1100100000100001110000 !
#8633632541655
b1111100000001010110110 !
#8633731054263
b1110100000110010110000 !
#8646033378759
b11100000001001110101 !
#8646132016383
b10100000101111110000 !
#8646867485511
b101100000001000000100 !
#8646965998119
b100100000111100100000 !
#8647709593287
b111100000000011110111 !
#8647808355927
b110100000101010100000 !
#8648786106063
b1101100000000100010010 !
#8648884868703
b1100100000100001110000 !
#8649650216655
b1111100000001010110110 !
#8649748854279
b1110100000110010110000 !
#8662002297519
b11100000001000110101 !
#8662100810127
b10100000101111110000 !
#8662835779191
b101100000000110011000 !
#8662934416815
b100100000111100100000 !
#8663677761951
b111100000000011110111 !
#8663776274559
b110100000101010100000 !
#8664754899807
b1101100000000100010010 !
#8664853662447
b1100100000100001110000 !
#8665619010399
b1111100000001010110110 !
#8665717648023
b1110100000110010110000 !
#8678005595679
b11100000000111110100 !
#8678104108287
b10100000101111110000 !
#8678839202367
b101100000000100101011 !
#8678937714975
b100100000111100100000 !
#8679681810207
b111100000000011110111 !
#8679780447831
b110100000101010100000 !
#8680757197839
b1101100000000100010010 !
#8680855835463
b1100100000100001110000 !
#8681644936455
b1111100000001010110110 !
#8681743574079
b1110100000110010110000 !
#8693777739255
b100100000000000000000 !
#8693806742967
b100100110010011111111111 !
#8693846623071
b110110010000011111111111 !
#8693890253655
b101111000001000101110100 !
#8693930758839
b100011010110110100110 !
#8693971514055
b100111000000000000000 !
#8694573841143
b101100000001000011010 !
#8694676854327
b100100001000000000000 !
#8695579969911
b111100000000011110111 !
#8695678732551
b110100000101010100000 !
#8696656357671
b1101100000000100010010 !
#8696754995295
b1100100000100001110000 !
#8697119541951
b1110100000000000000000 !
#8697157921863
b100100110010011111111111 !
#8697183300111
b110110010000011111111111 !
#8697224305359
b110000010000101001010000 !
#8697264810543
b1110010000000000000000 !
#8697305315727
b1110111000000000000000 !
#8697907767831
b1111100000000101111110 !
#8698006405455
b1110100000100110000000 !
#8710005941199
b11100000000110110100 !
#8710104578823
b10100000101111110000 !
#8710881428247
b101100000001000011010 !
#8710984441431
b100100001000000000000 !
#8711727911583
b111100000000011110111 !
#8711826799239
b110100000101010100000 !
#8712804299343
b1101100000000100010010 !
#8712902811951
b1100100000100001110000 !
#8713699788951
b1111100000000101111110 !
#8713798426575
b1110100000100110000000 !
#8726007114087
b11100000000101110011 !
#8726105751711
b10100000101111110000 !
#8726858848095
b101100000001000011010 !
#8726961986295
b100100001000000000000 !
#8727705331431
b111100000000011110111 !
#8727804219087
b110100000101010100000 !
#8728781844207
b1101100000000100010010 !
#8728880356815
b1100100000100001110000 !
#8729686209951
b1111100000000101111110 !
#8729784972591
b1110100000100110000000 !
#8742012537519
b11100000000100110011 !
#8742111050127
b10100000101111110000 !
#8742881273703
b101100000000111101000 !
#8742984161871
b100100001000000000000 !
#8743727131959
b111100000000011110111 !
#8743825894599
b110100000101010100000 !
#8744804144799
b1101100000000100010010 !
#8744903032455
b1100100000100001110000 !
#8745667880343
b1111100000000101111110 !
#8745766767999
b1110100000100110000000 !
#8758013210343
b11100000000011110010 !
#8758111722951
b10100000101111110000 !
#8758846191951
b101100000000110110110 !
#8758949205135
b100100001000000000000 !
#8759693925447
b111100000000011110111 !
#8759792813103
b110100000101010100000 !
#8760769938159
b1101100000000100010010 !
#8760868575783
b1100100000100001110000 !
#8761632798591
b1111100000000101111110 !
#8761731811263
b1110100000100110000000 !
#8774012257959
b11100000000010110010 !
#8774110770567
b10100000101111110000 !
#8774995633815
b111100000000011110111 !
#8775094396455
b110100000101010100000 !
#8776070771415
b1101100000000100010010 !
#8776169284023
b1100100000100001110000 !
#8776567835031
b1110100000000000000000 !
#8776607840151
b100100110010011111111111 !
#8776651345719
b110110010000011111111111 !
#8776691475855
b110000010000101001010000 !
#8776731981039
b1110010000000000000000 !
#8776776111687
b1110111000000000000000 !
#8777399441463
b1111100000000101010101 !
#8777498204103
b1110100000100110000000 !
#8790017431359
b11100000000001110001 !
#8790116569047
b10100000101111110000 !
#8790851413095
b101100000000110000100 !
#8790954301263
b100100001000000000000 !
#8791698271479
b111100000000011110111 !
#8791796784087
b110100000101010100000 !
#8792774534223
b1101100000000100010010 !
#8792873046831
b1100100000100001110000 !
#8793668773671
b1111100000000101010101 !
#8793767286279
b1110100000100110000000 !
#8806019854407
b11100000000000110001 !
#8806118367015
b10100000101111110000 !
#8806853086047
b101100000000101010010 !
#8806956099231
b100100001000000000000 !
#8807700069447
b111100000000011110111 !
#8807798957103
b110100000101010100000 !
#8808776082159
b1101100000000100010010 !
#8808874594767
b1100100000100001110000 !
#8809680322887
b1111100000000101010101 !
#8809779460575
b1110100000100110000000 !
#8822030028447
b11100000000000000000 !
#8822128666071
b10100000101111110000 !
#8822863760151
b101100000000100100000 !
#8822966648319
b100100001000000000000 !
#8823710243487
b111100000000011110111 !
#8823808756095
b110100000101010100000 !
#8824785881151
b1101100000000100010010 !
#8824884518775
b1100100000100001110000 !
#8825650116759
b1111100000000101010101 !
#8825748629367
b1110100000100110000000 !
#8838144340815
b101100000000011101110 !
#8838247353999
b100100001000000000000 !
#8838990324087
b111100000000011110111 !
#8839088961711
b110100000101010100000 !
#8840065711719
b1101100000000100010010 !
#8840164224327
b1100100000100001110000 !
#8840908194543
b1111100000000101010101 !
#8841006832167
b1110100000100110000000 !
#8854146763863
b101100000000010111100 !
#8854250277111
b100100001000000000000 !
#8854994747391
b111100000000011110111 !
#8855093760063
b110100000101010100000 !
#8856071510199
b1101100000000100010010 !
#8856170147823
b1100100000100001110000 !
#8856938871207
b1111100000000101010101 !
#8857037508831
b1110100000100110000000 !
#8869674001095
b100100000000000000000 !
#8869703004807
b100100110010011111111111 !
#8869746510375
b110110010000011111111111 !
#8869786515495
b101111000001000101110100 !
#8869827145695
b100011010110110100110 !
#8869871276343
b100111000000000000000 !
#8870475228639
b101100000001000011010 !
#8870573741247
b100100000110101110000 !
#8871479107119
b111100000000011110111 !
#8871578244807
b110100000101010100000 !
#8872556870055
b1101100000000100010010 !
#8872655382663
b1100100000100001110000 !
#8873019554271
b1110100000000000000000 !
#8873037681591
b100100110010011111111111 !
#8873077686711
b110110010000011111111111 !
#8873121567327
b110000010000101001010000 !
#8873175324207
b1110010000000000000000 !
#8873204952999
b1110111000000000000000 !
#8873807030055
b1111100000000101111110 !
#8873905667679
b1110100000100110000000 !
#8886188364663
b101100000001000011010 !
#8886287002287
b100100000110101110000 !
#8887030972503
b111100000000011110111 !
#8887130110191
b110100000101010100000 !
#8888109985599
b1101100000000100010010 !
#8888208873255
b1100100000100001110000 !
#8888984597535
b1111100000000101111110 !
#8889083485191
b1110100000100110000000 !
#8902164159303
b101100000001000011010 !
#8902262671911
b100100000110101110000 !
#8903007142191
b111100000000011110111 !
#8903105904831
b110100000101010100000 !
#8904085655223
b1101100000000100010010 !
#8904184167831
b1100100000100001110000 !
#8904970643487
b1111100000000101111110 !
#8905069906191
b1110100000100110000000 !
#8918182834431
b101100000000111101000 !
#8918281472055
b100100000110101110000 !
#8919025317255
b111100000000011110110 !
#8919123954879
b110100000101010100000 !
#8920101329967
b1101100000000100010010 !
#8920199967591
b1100100000100001110000 !
#8920945187967
b1111100000000101111110 !
#8921043700575
b1110100000100110000000 !
#8934154878591
b101100000000110110110 !
#8934253391199
b100100000110101110000 !
#8934997486431
b111100000000011110110 !
#8935095999039
b110100000101010100000 !
#8936073749175
b1101100000000100010010 !
#8936172511815
b1100100000100001110000 !
#8936917482159
b1111100000000101111110 !
#8937016119783
b1110100000100110000000 !
#8950302445215
b111100000000011110110 !
#8950401082839
b110100000101010100000 !
#8951378332911
b1101100000000100010010 !
#8951477095551
b1100100000100001110000 !
#8952221440815
b1111100000000101111110 !
#8952319953423
b1110100000100110000000 !
#8966157099351
b101100000000110000100 !
#8966255611959
b100100000110101110000 !
#8966998832079
b111100000000011110110 !
#8967097344687
b110100000101010100000 !
#8968075344855
b1101100000000100010010 !
#8968173857463
b1100100000100001110000 !
#8968918077711
b1111100000000101111110 !
#8969016590319
b1110100000100110000000 !
#8982158022207
b101100000000101010010 !
#8982256909863
b100100000110101110000 !
#8983000380015
b111100000000011110110 !
#8983099017639
b110100000101010100000 !
#8984077892919
b1101100000000100010010 !
#8984176780575
b1100100000100001110000 !
#8984921125839
b1111100000000101111110 !
#8985019888479
b1110100000100110000000 !
#8998161820431
b101100000000100100000 !
#8998260583071
b100100000110101110000 !
#8999004803319
b111100000000011110110 !
#8999103315927
b110100000101010100000 !
#9000081941175
b1101100000000100010010 !
#9000181203879
b1100100000100001110000 !
#9000925674159
b1111100000000101111110 !
#9001024311783
b1110100000100110000000 !
#9014162118207
b101100000000011101110 !
#9014260630815
b100100000110101110000 !
#9015004726047
b111100000000011110110 !
#9015103363671
b110100000101010100000 !
#9016081113807
b1101100000000100010010 !
#9016179751431
b1100100000100001110000 !
#9016924471743
b1111100000000101111110 !
#9017023109367
b1110100000100110000000 !
#9030166416495
b101100000000010111100 !
#9030264929103
b100100000110101110000 !
#9031010649543
b111100000000011110110 !
#9031109287167
b110100000101010100000 !
#9032086037175
b1101100000000100010010 !
#9032184549783
b1100100000100001110000 !
#9032954523327
b1111100000000101111110 !
#9033053285967
b1110100000100110000000 !
#9045576138687
b10100000000000000000 !
#9045601641951
b100100110010011111111111 !
#9045641647071
b110110010000011111111111 !
#9045685277655
b101110110000110110101000 !
#9045725782839
b10011011100011010100 !
#9045766288023
b10111000000000000000 !
#9046368865143
b11100000001010110110 !
#9046467627783
b10100000101111110000 !
#9046992194919
b100100000000000000000 !
#9047017573167
b100100110010011111111111 !
#9047061078735
b110110010000011111111111 !
#9047101208871
b101111000001000101110100 !
#9047141714055
b100011010110110100110 !
#9047185844703
b100111000000000000000 !
#9047788296807
b101100000001010110110 !
#9047886809415
b100100000111100100000 !
#9048789924999
b111100000000011110110 !
#9048888437607
b110100000101010100000 !
#9049886440335
b1101100000000100010010 !
#9049984952943
b1100100000100001110000 !
#9050349749631
b1110100000000000000000 !
#9050393255199
b100100110010011111111111 !
#9050436760767
b110110010000011111111111 !
#9050476890903
b110000010000101001010000 !
#9050517396087
b1110010000000000000000 !
#9050561526735
b1110111000000000000000 !
#9051163728807
b1111100000001000111110 !
#9051262616463
b1110100000110010110000 !
#9062091752415
b11100000001010110110 !
#9062190265023
b10100000101111110000 !
#9062965364223
b101100000001010110110 !
#9063064126863
b100100000111100100000 !
#9063807847047
b111100000000011110110 !
#9063906484671
b110100000101010100000 !
#9064883484711
b1101100000000100010010 !
#9064982497383
b1100100000100001110000 !
#9065779224351
b1111100000001000111110 !
#9065877861975
b1110100000110010110000 !
#9078071047503
b11100000001010110110 !
#9078169685127
b10100000101111110000 !
#9078922906527
b101100000001010110110 !
#9079021419135
b100100000111100100000 !
#9079765139319
b111100000000011110110 !
#9079863901959
b110100000101010100000 !
#9080841652095
b1101100000000100010010 !
#9080940289719
b1100100000100001110000 !
#9081745767807
b1111100000001000111110 !
#9081845030511
b1110100000110010110000 !
#9094072345407
b11100000001010110110 !
#9094170983031
b10100000101111110000 !
#9094941206607
b101100000001001110101 !
#9095039844231
b100100000111100100000 !
#9095783814447
b111100000000011110110 !
#9095882327055
b110100000101010100000 !
#9096860327223
b1101100000000100010010 !
#9096958839831
b1100100000100001110000 !
#9097724687847
b1111100000001000111110 !
#9097823325471
b1110100000110010110000 !
#9110079018999
b11100000001010110110 !
#9110177656623
b10100000101111110000 !
#9110911375527
b101100000001000110101 !
#9111010013151
b100100000111100100000 !
#9111754108383
b111100000000011110110 !
#9111852620991
b110100000101010100000 !
#9112829496015
b1101100000000100010010 !
#9112928133639
b1100100000100001110000 !
#9113692356447
b1111100000001000111110 !
#9113790994071
b1110100000110010110000 !
#9126078191631
b11100000001010110110 !
#9126177204303
b10100000101111110000 !
#9127062567615
b111100000000011110110 !
#9127161205239
b110100000101010100000 !
#9128138455311
b1101100000000100010010 !
#9128236967919
b1100100000100001110000 !
#9128981313183
b1111100000001000111110 !
#9129080325855
b1110100000110010110000 !
#9142078989471
b11100000001010110110 !
#9142177502079
b10100000101111110000 !
#9142913971335
b101100000000111110100 !
#9143012733975
b100100000111100100000 !
#9143756329143
b111100000000011110110 !
#9143854966767
b110100000101010100000 !
#9144832341855
b1101100000000100010010 !
#9144931104495
b1100100000100001110000 !
#9145696077399
b1111100000001000111110 !
#9145794840039
b1110100000110010110000 !
#9158083287759
b11100000001010110110 !
#9158181925383
b10100000101111110000 !
#9158916519399
b101100000000110110100 !
#9159015032007
b100100000111100100000 !
#9159759752319
b111100000000011110110 !
#9159858514959
b110100000101010100000 !
#9160837015191
b1101100000000100010010 !
#9160935527799
b1100100000100001110000 !
#9161701500831
b1111100000001000111110 !
#9161800388487
b1110100000110010110000 !
#9174101462823
b11100000001001110101 !
#9174200225463
b10100000101111110000 !
#9174934819479
b101100000000101110011 !
#9175033332087
b100100000111100100000 !
#9175777052271
b111100000000011110110 !
#9175875689895
b110100000101010100000 !
#9176853690063
b1101100000000100010010 !
#9176952202671
b1100100000100001110000 !
#9177717050559
b1111100000001000111110 !
#9177815563167
b1110100000110010110000 !
#9190068506343
b11100000001000110101 !
#9190167393999
b10100000101111110000 !
#9190901862999
b101100000000100110011 !
#9191000500623
b100100000111100100000 !
#9191744220807
b111100000000011110110 !
#9191842858431
b110100000101010100000 !
#9192820108503
b1101100000000100010010 !
#9192918746127
b1100100000100001110000 !
#9193684594143
b1111100000001000111110 !
#9193783481799
b1110100000110010110000 !
#9206070179295
b11100000000111110100 !
#9206168816919
b10100000101111110000 !
#9206906286303
b101100000000011110010 !
#9207004923927
b100100000111100100000 !
#9207749019159
b111100000000011110110 !
#9207847781799
b110100000101010100000 !
#9208826407047
b1101100000000100010010 !
#9208924919655
b1100100000100001110000 !
#9209714770743
b1111100000001000111110 !
#9209813408367
b1110100000110010110000 !
#9221843948079
b100100000000000000000 !
#9221872951791
b100100110010011111111111 !
#9221916582375
b110110010000011111111111 !
#9221956587495
b101111000001000101110100 !
#9221997092679
b100011010110110100110 !
#9222041223327
b100111000000000000000 !
#9222645925719
b101100000001000011010 !
#9222748938903
b100100001000000000000 !
#9223654429791
b111100000000011110110 !
#9223753692495
b110100000101010100000 !
#9224731567647
b1101100000000100010010 !
#9224830330287
b1100100000100001110000 !
#9225215129535
b1110100000000000000000 !
#9225247758711
b100100110010011111111111 !
#9225291264279
b110110010000011111111111 !
#9225331269399
b110000010000101001010000 !
#9225375400047
b1110010000000000000000 !
#9225415905231
b1110111000000000000000 !
#9226017607239
b1111100000000101111110 !
#9226117119975
b1110100000100110000000 !
#9238073275167
b11100000000110110100 !
#9238171787775
b10100000101111110000 !
#9238948387167
b101100000001000011010 !
#9239051900415
b100100001000000000000 !
#9239795495583
b111100000000011110110 !
#9239894883303
b110100000101010100000 !
#9240872758455
b1101100000000100010010 !
#9240971271063
b1100100000100001110000 !
#9241767998031
b1111100000000101111110 !
#9241866635655
b1110100000100110000000 !
#9254078823615
b11100000000101110011 !
#9254177461239
b10100000101111110000 !
#9254930557623
b101100000001000011010 !
#9255033570807
b100100001000000000000 !
#9255778541151
b111100000000011110110 !
#9255877053759
b110100000101010100000 !
#9256856054055
b1101100000000100010010 !
#9256954941711
b1100100000100001110000 !
#9257760294783
b1111100000000101111110 !
#9257859057423
b1110100000100110000000 !
#9270080121519
b11100000000100110011 !
#9270178634127
b10100000101111110000 !
#9270948357639
b101100000000111101000 !
#9271051370823
b100100001000000000000 !
#9271795341039
b111100000000011110110 !
#9271894353711
b110100000101010100000 !
#9272872978959
b1101100000000100010010 !
#9272971866615
b1100100000100001110000 !
#9273737339583
b1111100000000101111110 !
#9273836852319
b1110100000100110000000 !
#9286080794343
b11100000000011110010 !
#9286179556983
b10100000101111110000 !
#9286915276143
b101100000000110110110 !
#9287018164311
b100100001000000000000 !
#9287762884623
b111100000000011110110 !
#9287861647263
b110100000101010100000 !
#9288839897463
b1101100000000100010010 !
#9288938410071
b1100100000100001110000 !
#9289703633007
b1111100000000101111110 !
#9289802270631
b1110100000100110000000 !
#9302081217135
b11100000000010110010 !
#9302179854759
b10100000101111110000 !
#9303065593119
b111100000000011110110 !
#9303164105727
b110100000101010100000 !
#9304141230783
b1101100000000100010010 !
#9304239868407
b1100100000100001110000 !
#9304984338687
b1111100000000101111110 !
#9305083476375
b1110100000100110000000 !
#9318082765071
b11100000000001110001 !
#9318181527711
b10100000101111110000 !
#9318916871823
b101100000000110000100 !
#9319020010023
b100100001000000000000 !
#9319763730207
b111100000000011110110 !
#9319862492847
b110100000101010100000 !
#9320840993079
b1101100000000100010010 !
#9320939505687
b1100100000100001110000 !
#9321703603479
b1111100000000101111110 !
#9321802116087
b1110100000100110000000 !
#9334089563679
b11100000000000110001 !
#9334188076287
b10100000101111110000 !
#9334923670431
b101100000000101010010 !
#9335026558599
b100100001000000000000 !
#9335769903735
b111100000000011110110 !
#9335868416343
b110100000101010100000 !
#9336844916319
b1101100000000100010010 !
#9336943678959
b1100100000100001110000 !
#9337707526719
b1111100000000101111110 !
#9337806539391
b1110100000100110000000 !
#9350096362287
b11100000000000000000 !
#9350194874895
b10100000101111110000 !
#9350929718943
b101100000000100100000 !
#9351032607111
b100100001000000000000 !
#9351776952375
b111100000000011110110 !
#9351875965047
b110100000101010100000 !
#9352853340135
b1101100000000100010010 !
#9352951852743
b1100100000100001110000 !
#9353716575615
b1111100000000101111110 !
#9353815338255
b1110100000100110000000 !
#9366207674271
b101100000000011101110 !
#9366310562439
b100100001000000000000 !
#9367054657671
b111100000000011110110 !
#9367153170279
b110100000101010100000 !
#9368131045431
b1101100000000100010010 !
#9368229808071
b1100100000100001110000 !
#9368974528383
b1111100000000101111110 !
#9369073166007
b1110100000100110000000 !
#9382209222207
b101100000000010111100 !
#9382312110375
b100100001000000000000 !
#9383056205607
b111100000000011110110 !
#9383155218279
b110100000101010100000 !
#9384132968415
b1101100000000100010010 !
#9384231481023
b1100100000100001110000 !
#9385001204535
b1111100000000101111110 !
#9385100092191
b1110100000100110000000 !
#9397739834871
b100100000000000000000 !
#9397772464047
b100100110010011111111111 !
#9397812344151
b110110010000011111111111 !
#9397855974735
b101111000001000101110100 !
#9397896479919
b100011010110110100110 !
#9397936985103
b100111000000000000000 !
#9398539312191
b101100000001000011010 !
#9398637949815
b100100000110101110000 !
#9399541190415
b111100000000011110110 !
#9399640078071
b110100000101010100000 !
#9400616578047
b1101100000000100010010 !
#9400715090655
b1100100000100001110000 !
#9400976124063
b1110100000000000000000 !
#9401023255095
b100100110010011111111111 !
#9401063135199
b110110010000011111111111 !
#9401106765783
b110000010000101001010000 !
#9401147270967
b1110010000000000000000 !
#9401187776151
b1110111000000000000000 !
#9401811731007
b1111100000000101111110 !
#9401910243615
b1110100000100110000000 !
#9414254198439
b101100000001000011010 !
#9414353086095
b100100000110101110000 !
#9415097556375
b111100000000011110110 !
#9415196193999
b110100000101010100000 !
#9416173444071
b1101100000000100010010 !
#9416272206711
b1100100000100001110000 !
#9417047430927
b1111100000000101111110 !
#9417146068551
b1110100000100110000000 !
#9430234618671
b101100000001000011010 !
#9430333131279
b100100000110101110000 !
#9431077351527
b111100000000011110110 !
#9431175864135
b110100000101010100000 !
#9432153864303
b1101100000000100010010 !
#9432252376911
b1100100000100001110000 !
#9433037227359
b1111100000000101111110 !
#9433136240031
b1110100000100110000000 !
#9446253668847
b101100000000111101000 !
#9446352556503
b100100000110101110000 !
#9447098151927
b111100000000011110110 !
#9447196789551
b110100000101010100000 !
#9448173789591
b1101100000000100010010 !
#9448272427215
b1100100000100001110000 !
#9449017897623
b1111100000000101111110 !
#9449116535247
b1110100000100110000000 !
#9462220837383
b101100000000110110110 !
#9462319475007
b100100000110101110000 !
#9463062945159
b111100000000011110110 !
#9463161832815
b110100000101010100000 !
#9464140708095
b1101100000000100010010 !
#9464239470735
b1100100000100001110000 !
#9464982315807
b1111100000000101111110 !
#9465081078447
b1110100000100110000000 !
#9478373029599
b111100000000011110110 !
#9478471542207
b110100000101010100000 !
#9479450167455
b1101100000000100010010 !
#9479548805079
b1100100000100001110000 !
#9480292650279
b1111100000000101111110 !
#9480391537935
b1110100000100110000000 !
#9494222433063
b101100000000110000100 !
#9494321070687
b100100000110101110000 !
#9495064415823
b111100000000011110110 !
#9495163053447
b110100000101010100000 !
#9496140553551
b1101100000000100010010 !
#9496239441207
b1100100000100001110000 !
#9496983411423
b1111100000000101111110 !
#9497081924031
b1110100000100110000000 !
#9510226606335
b101100000000101010010 !
#9510325243959
b100100000110101110000 !
#9511068964143
b111100000000011110110 !
#9511167601767
b110100000101010100000 !
#9512146727079
b1101100000000100010010 !
#9512245239687
b1100100000100001110000 !
#9512989209903
b1111100000000101111110 !
#9513087722511
b1110100000100110000000 !
#9526230529575
b101100000000100100000 !
#9526329167199
b100100000110101110000 !
#9527073387447
b111100000000011110110 !
#9527171900055
b110100000101010100000 !
#9528149900223
b1101100000000100010010 !
#9528249162927
b1100100000100001110000 !
#9528994508319
b1111100000000101111110 !
#9529093020927
b1110100000100110000000 !
#9542232702591
b101100000000011101110 !
#9542331715263
b100100000110101110000 !
#9543075685479
b111100000000011110110 !
