cores/cps15/ver/game/wof_coin.vcd
$comment
TOOL:	simvision	15.20-s050
$end

$date
    Nov 15, 2020 09:34:51
$end

$timescale
    1ps
$end


$scope module mist_test $end

$scope module UUT $end

$scope module u_game $end

$scope module u_sound $end
$var wire 24 ! cpu2dsp [23:0] $end
$var wire 1 " dsp_irq $end
$var wire 1 # dsp_rst $end
$upscope $end

$upscope $end

$upscope $end

$upscope $end

$enddefinitions $end
#0
$dumpvars
b0 !
0"
1#
$end
#10886711029
0#
#20032506541
1#
#36040055245
0#
#1321117149061
1"
b110111100000000000000000 !
#1321117399093
0"
#1321130150725
b110111100010111000000000 !
#1321135401397
b110111110010111000000000 !
1"
#1321135693101
0"
#1321148403061
b110111110000000000000000 !
#1321153653733
b111000000000000000000000 !
1"
#1321153820421
0"
#1321166655397
b111000000011000000000000 !
#1321171906069
b111000010011000000000000 !
1"
#1321173072885
0"
#1321184907733
b111000011111111100000000 !
#1321187158021
b111000011111111100111111 !
#1321190158405
b111001001111111100111111 !
1"
#1321190491781
0"
#1321208410741
1"
b111001011111111100111111 !
#1321208577429
0"
#1321226788093
1"
b111001101111111100111111 !
#1321227538189
0"
#1321245040429
1"
b111001111111111100111111 !
#1321246165573
0"
#1321260292381
b111001111111111111111111 !
#1321263292765
b111000101111111111111111 !
1"
#1321264251221
0"
#1321276294429
b111000101011001011111111 !
#1321278669733
b111000101011001000001101 !
#1321281670117
b110110101011001000001101 !
1"
#1321283211981
0"
#1321294671781
b110110100001000100001101 !
#1321296922069
b110110100001000100001110 !
#1321299922453
b110111000001000100001110 !
1"
#1321301839365
0"
#1321312924117
b110111000011100100001110 !
#1321315174405
b110111000011100100000000 !
#1321318174789
b111000110011100100000000 !
1"
#1321319591637
0"
#1321339677541
b111000110000000000000000 !
#1321344928213
b101110100000000000000000 !
1"
#1321345136573
0"
#1321365555853
1"
b1100000000000000000 !
#1321372973469
0"
#1321382182981
1"
b100000000000000000 !
#1321382891405
0"
#1321406811133
1"
b101110110000000000000000 !
#1321413186949
0"
#1321427438773
1"
b11100000000000000000 !
#1321428647261
0"
#1321444065901
1"
b10100000000000000000 !
#1321444399277
0"
#1321468694053
1"
b101111000000000000000000 !
#1321468860741
0"
#1321489321693
1"
b101100000000000000000 !
#1321490405165
0"
#1321505948821
1"
b100100000000000000000 !
#1321507115637
0"
#1321530576973
1"
b101111010000000000000000 !
#1321530701989
0"
#1321551204613
1"
b111100000000000000000 !
#1321551579661
0"
#1321567831741
1"
b110100000000000000000 !
#1321568165117
0"
#1321592459893
1"
b101111100000000000000000 !
#1321595668637
0"
#1321613212549
1"
b1001100000000000000000 !
#1321613920973
0"
#1321629839677
1"
b1000100000000000000000 !
#1321635882117
0"
#1321654467829
1"
b101111110000000000000000 !
#1321655301269
0"
#1321675095469
1"
b1011100000000000000000 !
#1321676137269
0"
#1321691722597
1"
b1010100000000000000000 !
#1321692180989
0"
#1321716350749
1"
b110000000000000000000000 !
#1321716934157
0"
#1321736978389
1"
b1101100000000000000000 !
#1321737186749
0"
#1321753605517
1"
b1100100000000000000000 !
#1321754147253
0"
#1321778233669
1"
b110000010000000000000000 !
#1321778442029
0"
#1321798861309
1"
b1111100000000000000000 !
#1321802903493
0"
#1321815488437
1"
b1110100000000000000000 !
#1321818363805
0"
#1321840116589
1"
b110000100000000000000000 !
#1321841158389
0"
#1321860744229
1"
b10001100000000000000000 !
#1321860994261
0"
#1321877621389
1"
b10000100000000000000000 !
#1321880121709
0"
#1321902249541
1"
b110000110000000000000000 !
#1321902541245
0"
#1321922877181
1"
b10011100000000000000000 !
#1321929711389
0"
#1321939504309
1"
b10010100000000000000000 !
#1321939629325
0"
#1321964132461
1"
b110001000000000000000000 !
#1321969924869
0"
#1321984760101
1"
b10101100000000000000000 !
#1321985385181
0"
#1322001637261
1"
b10100100000000000000000 !
#1322001970637
0"
#1322026265413
1"
b110001010000000000000000 !
#1322026473773
0"
#1322046893053
1"
b10111100000000000000000 !
#1322047143085
0"
#1322063645197
1"
b10110100000000000000000 !
#1322063853557
0"
#1322088273349
1"
b110001100000000000000000 !
#1322096732765
0"
#1322108900989
1"
b11001100000000000000000 !
#1322109151021
0"
#1322125528117
1"
b11000100000000000000000 !
#1322125903165
0"
#1322150156269
1"
b110001110000000000000000 !
#1322152406557
0"
#1322170783909
1"
b11011100000000000000000 !
#1322171492333
0"
#1322187411037
1"
b11010100000000000000000 !
#1322192620037
0"
#1322212039189
1"
b110010000000000000000000 !
#1322214164461
0"
#1322232666829
1"
b11101100000000000000000 !
#1322232875189
0"
#1322249543989
1"
b11100100000000000000000 !
#1322249919037
0"
#1322274172141
1"
b110010010000000000000000 !
#1322274505517
0"
#1322294799781
1"
b11111100000000000000000 !
#1322295424861
0"
#1322311426909
1"
b11110100000000000000000 !
#1322319427933
0"
#1322338680397
1"
b110011010000000000000000 !
#1322341014029
0"
#1322351307013
b110011010000000100000000 !
#1322356557685
b110101100000000100000000 !
1"
#1322359641413
0"
#1322376810277
b110101100000000000000000 !
#1322382060949
b110100010000000000000000 !
1"
#1322382519341
0"
#1322394687565
b110100010000000100000000 !
#1322399938237
b110101110000000100000000 !
1"
#1322400271613
0"
#1322420065813
b110101110000000000000000 !
#1322425316485
b110101010000000000000000 !
1"
#1322430775517
0"
#1322437943101
b110101010000000100000000 !
#1322443193773
b110110000000000100000000 !
1"
#1322444027213
0"
#1397978111005
b110110000000000000000000 !
#1397983361677
b101110100000000000000000 !
1"
#1397983653381
0"
#1398003989317
1"
b1100000000000000000 !
#1398004906101
0"
#1398020616445
1"
b100000000000000000 !
#1398020949821
0"
#1398045244597
1"
b101110110000000000000000 !
#1398045702989
0"
#1398065872237
1"
b11100000000000000000 !
#1398066288957
0"
#1398082499365
1"
b10100000000000000000 !
#1398082916085
0"
#1398107127517
1"
b101111000000000000000000 !
#1398108044301
0"
#1398127880173
1"
b101100000000000000000 !
#1398131672325
0"
#1398144507301
1"
b100100000000000000000 !
#1398147132637
0"
#1398169260469
1"
b101111010000000000000000 !
#1398169927221
0"
#1398189888109
1"
b111100000000000000000 !
#1398190013125
0"
#1398206515237
1"
b110100000000000000000 !
#1398206765269
0"
#1398231268405
1"
b101111100000000000000000 !
#1398231643453
0"
#1398251896045
1"
b1001100000000000000000 !
#1398258480221
0"
#1398268523173
1"
b1000100000000000000000 !
#1398269231597
0"
#1398293151325
1"
b101111110000000000000000 !
#1398298693701
0"
#1398313778965
1"
b1011100000000000000000 !
#1398314154013
0"
#1398330406093
1"
b1010100000000000000000 !
#1398330739469
0"
#1398355159261
1"
b110000000000000000000000 !
#1398355992701
0"
#1398375786901
1"
b1101100000000000000000 !
#1398375911917
0"
#1398392414029
1"
b1100100000000000000000 !
#1398392622389
0"
#1398417042181
1"
b110000010000000000000000 !
#1398425501597
0"
#1398437669821
1"
b1111100000000000000000 !
#1398437919853
0"
#1398454296949
1"
b1110100000000000000000 !
#1398454671997
0"
#1398478925101
1"
b110000100000000000000000 !
#1398481175389
0"
#1398499552741
1"
b10001100000000000000000 !
#1398500261165
0"
#1398516179869
1"
b10000100000000000000000 !
#1398521388869
0"
#1398540808021
1"
b110000110000000000000000 !
#1398542933293
0"
#1398561560677
1"
b10011100000000000000000 !
#1398562019069
0"
#1398578187805
1"
b10010100000000000000000 !
#1398578687869
0"
#1398602815957
1"
b110001000000000000000000 !
#1398603274349
0"
#1398623443597
1"
b10101100000000000000000 !
#1398624193693
0"
#1398640070725
1"
b10100100000000000000000 !
#1398648196765
0"
#1398664698877
1"
b110001010000000000000000 !
#1398665615661
0"
#1398685326517
1"
b10111100000000000000000 !
#1398688410245
0"
#1398701953645
1"
b10110100000000000000000 !
#1398703870557
0"
#1398726581797
1"
b110001100000000000000000 !
#1398727206877
0"
#1398747334453
1"
b11001100000000000000000 !
#1398900020661
0"
#1398912605605
1"
b11000100000000000000000 !
#1399072834445
0"
#1399082252317
1"
b110001110000000000000000 !
#1399245648229
0"
#1399255274461
1"
b11011100000000000000000 !
#1399418462013
0"
#1399427796541
1"
b11010100000000000000000 !
#1399591275797
0"
#1399601068717
1"
b110010000000000000000000 !
#1399764089581
0"
#1399774090861
1"
b11101100000000000000000 !
#1399936903365
0"
#1399946612941
1"
b11100100000000000000000 !
#1400109717149
0"
#1400119885117
1"
b110010010000000000000000 !
#1400282530933
0"
#1400295407581
1"
b11111100000000000000000 !
#1400455344717
0"
#1400467929661
1"
b11110100000000000000000 !
#1400628158501
0"
#1400640076693
1"
b110011010000000000000000 !
#1400800972285
0"
#1400808598261
b110011010000000100000000 !
#1400813848933
b110101100000000100000000 !
1"
#1400973786069
0"
#1400978995069
b110101100000000000000000 !
#1400984245741
b110100010000000000000000 !
1"
#1401146599853
0"
#1401152767309
b110100010000000100000000 !
#1401158017981
b110101110000000100000000 !
1"
#1401319413637
0"
#1401326789581
b110101110000000000000000 !
#1401332040253
b110101010000000000000000 !
1"
#1401492227421
0"
#1401496936357
b110101010000000100000000 !
#1401502187029
b110110000000000100000000 !
1"
#1401665041205
0"
#6998699036533
b110110000000000000000000 !
#6998704287205
b101110100000000000000000 !
1"
#6998709829581
0"
#6998724914845
1"
b1100000000000000000 !
#6998725581597
0"
#6998741541973
1"
b100000000000000000 !
#6998750043061
0"
#6998766295141
1"
b101110110000000000000000 !
#6998766420157
0"
#6998786922781
1"
b11100000000000000000 !
#6998787089469
0"
#6998803549909
1"
b10100000000000000000 !
#6998805716853
0"
#6998828428093
1"
b101111000000000000000000 !
#6998828594781
0"
#6998849055733
1"
b101100000000000000000 !
#6998849347437
0"
#6998865682861
1"
b100100000000000000000 !
#6998865807877
0"
#6998890811077
1"
b101111010000000000000000 !
#6998890936093
0"
#6998911438717
1"
b111100000000000000000 !
#6998917064437
0"
#6998928065845
1"
b110100000000000000000 !
#6998932524749
0"
#6998952693997
1"
b101111100000000000000000 !
#6998954110845
0"
#6998973321637
1"
b1001100000000000000000 !
#6998973613341
0"
#6998989948765
1"
b1000100000000000000000 !
#6998990823877
0"
#6999014701933
1"
b101111110000000000000000 !
#6999015035309
0"
#6999035329573
1"
b1011100000000000000000 !
#6999043872333
0"
#6999055582165
1"
b1010100000000000000000 !
#6999056290589
0"
#6999080210317
1"
b110000000000000000000000 !
#6999084085813
0"
#6999100837957
1"
b1101100000000000000000 !
#6999101838085
0"
#6999117465085
1"
b1100100000000000000000 !
#6999117798461
0"
#6999142218253
1"
b110000010000000000000000 !
#6999142426613
0"
#6999162845893
1"
b1111100000000000000000 !
#6999163470973
0"
#6999179473021
1"
b1110100000000000000000 !
#6999180014757
0"
#6999204101173
1"
b110000100000000000000000 !
#6999210893709
0"
#6999224853829
1"
b10001100000000000000000 !
#6999224978845
0"
#6999241480957
1"
b10000100000000000000000 !
#6999241730989
0"
#6999266234125
1"
b110000110000000000000000 !
#6999266567501
0"
#6999286861765
1"
b10011100000000000000000 !
#6999288153597
0"
#6999303488893
1"
b10010100000000000000000 !
#6999306780981
0"
#6999328117045
1"
b110001000000000000000000 !
#6999328325405
0"
#6999348744685
1"
b10101100000000000000000 !
#6999349078061
0"
#6999365371813
1"
b10100100000000000000000 !
#6999365621845
0"
#6999389999965
1"
b110001010000000000000000 !
#6999390333341
0"
#6999410627605
1"
b10111100000000000000000 !
#6999418128565
0"
#6999427254733
1"
b10110100000000000000000 !
#6999433588877
0"
#6999452007901
1"
b110001100000000000000000 !
#6999452674653
0"
#6999472635541
1"
b11001100000000000000000 !
#6999473802357
0"
#6999489262669
1"
b11000100000000000000000 !
#6999489512701
0"
#6999513890821
1"
b110001110000000000000000 !
#6999514057509
0"
#6999534643477
1"
b11011100000000000000000 !
#6999534893509
0"
#6999551270605
1"
b11010100000000000000000 !
#6999551520637
0"
#6999575898757
1"
b110010000000000000000000 !
#6999576607181
0"
#6999596526397
1"
b11101100000000000000000 !
#6999600610253
0"
#6999613153525
1"
b11100100000000000000000 !
#6999613861949
0"
#6999637781677
1"
b110010010000000000000000 !
#6999640823733
0"
#6999658409317
1"
b11111100000000000000000 !
#6999658909381
0"
#6999675036445
1"
b11110100000000000000000 !
#6999675369821
0"
#6999702164917
1"
b110011010000000000000000 !
#6999702414949
0"
#6999714791533
b110011010000000100000000 !
#6999720042205
b110101100000000100000000 !
1"
#6999720208893
0"
#6999740169781
b110101100000000000000000 !
#6999745420453
b110100010000000000000000 !
1"
#6999752171317
0"
#6999758047069
b110100010000000100000000 !
#6999763297741
b110101110000000100000000 !
1"
#6999767631629
0"
#6999783425317
b110101110000000000000000 !
#6999788675989
b110101010000000000000000 !
1"
#6999789217725
0"
#6999801302605
b110101010000000100000000 !
#6999806553277
b110110000000000100000000 !
1"
#6999807845109
0"
#7965507272149
b110110000000000000000000 !
#7965512522821
b101110100000000000000000 !
1"
#7965512731181
0"
#7965533150461
1"
b1100000000000000000 !
#7965540901453
0"
#7965553528069
1"
b100000000000000000 !
#7965554153149
0"
#7965581156605
b100010000000000000 !
#7965583406893
b100010000000000001 !
#7965586407277
b100000000010000000000001 !
1"
#7965586532293
0"
#7965906448237
b100000000000000000000001 !
#7965908698525
b100000000000000000000000 !
#7965911698909
b101110110000000000000000 !
1"
#7965915157685
0"
#7965932326549
1"
b11100000000000000000 !
#7965933785069
0"
#7965948953677
1"
b10100000000000000000 !
#7965949703773
0"
#7965976332181
b10100010000000000000 !
#7965978582469
b10100010000000000001 !
#7965981582853
b100000010010000000000001 !
1"
#7965986291789
0"
#7966301748829
b100000010000000000000001 !
#7966303999117
b100000010000000000000000 !
#7966306999501
b101111000000000000000000 !
1"
#7966307291205
0"
#7966327627141
1"
b101100000000000000000 !
#7966327752157
0"
#7966344254269
1"
b100100000000000000000 !
#7966345129381
0"
#7966371757789
b100100010000000000000 !
#7966374008077
b100100010000000000001 !
#7966377008461
b100000100010000000000001 !
1"
#7966378633669
0"
#7966697174437
b100000100000000000000001 !
#7966699424725
b100000100000000000000000 !
#7966702425109
b101111010000000000000000 !
1"
#7966710051085
0"
#7966723302781
1"
b111100000000000000000 !
#7966724136221
0"
#7966740054925
1"
b110100000000000000000 !
#7966740221613
0"
#7966767808477
b110100010000000000000 !
#7966770058765
b110100010000000000001 !
#7966773059149
b100000110010000000000001 !
1"
#7966773975933
0"
#7967093225125
b100000110000000000000001 !
#7967095475413
b100000110000000000000000 !
#7967098475797
b101111100000000000000000 !
1"
#7967099767629
0"
#7967119103437
1"
b1001100000000000000000 !
#7967121353725
0"
#7967135730565
1"
b1000100000000000000000 !
#7967139981109
0"
#7967163109069
b1000100010000000000000 !
#7967165359357
b1000100010000000000001 !
#7967168359741
b100001000010000000000001 !
1"
#7967168693117
0"
#7967488525717
b100001000000000000000001 !
#7967490776005
b100001000000000000000000 !
#7967493776389
b101111110000000000000000 !
1"
#7967495568285
0"
#7967514779077
1"
b1011100000000000000000 !
#7967514987437
0"
#7967531406205
1"
b1010100000000000000000 !
#7967531614565
0"
#7967558784709
b1010100010000000000000 !
#7967561034997
b1010100010000000000001 !
#7967564035381
b100001010010000000000001 !
1"
#7967564243741
0"
#7967884326373
b100001010000000000000001 !
#7967886576661
b100001010000000000000000 !
#7967889577045
b110000000000000000000000 !
1"
#7967889952093
0"
#7967910204685
1"
b1101100000000000000000 !
#7967910871437
0"
#7967926831813
1"
b1100100000000000000000 !
#7967934874509
0"
#7967954210317
b1100100010000000000000 !
#7967956460605
b1100100010000000000001 !
#7967959460989
b100001100010000000000001 !
1"
#7967959669349
0"
#7968279751981
b100001100000000000000001 !
#7968282002269
b100001100000000000000000 !
#7968285002653
b110000010000000000000000 !
1"
#7968285502717
0"
#7968305630293
1"
b1111100000000000000000 !
#7968309130741
0"
#7968322257421
1"
b1110100000000000000000 !
#7968324591053
0"
#7968349635925
b1110100010000000000000 !
#7968351886213
b1110100010000000000001 !
#7968354886597
b100001110010000000000001 !
1"
#7968355094957
0"
#7968675177589
b100001110000000000000001 !
#7968677427877
b100001110000000000000000 !
#7968680428261
b110000100000000000000000 !
1"
#7968681428389
0"
#7968701055901
1"
b10001100000000000000000 !
#7968701264261
0"
#7968717808045
1"
b10000100000000000000000 !
#7968720391709
0"
#7968745311565
b10000100010000000000000 !
#7968747561853
b10000100010000000000001 !
#7968750562237
b100010000010000000000001 !
1"
#7968754521077
0"
#7969091355853
b100010000000000000000001 !
#7969093606141
b100010000000000000000000 !
#7969096606525
b110000110000000000000000 !
1"
#7969104024141
0"
#7969117234165
1"
b10011100000000000000000 !
#7969118109277
0"
#7969133861293
1"
b10010100000000000000000 !
#7969134194669
0"
#7969161364813
b10010100010000000000000 !
#7969163615101
b10010100010000000000001 !
#7969166740501
b100010010010000000000001 !
1"
#7969167115549
0"
#7969487031493
b100010010000000000000001 !
#7969489281781
b100010010000000000000000 !
#7969492282165
b110001000000000000000000 !
1"
#7969493740685
0"
#7969513034821
1"
b10101100000000000000000 !
#7969515326781
0"
#7969529661949
1"
b10100100000000000000000 !
#7969533954165
0"
#7969557040453
b10100100010000000000000 !
#7969559290741
b10100100010000000000001 !
#7969562291125
b100010100010000000000001 !
1"
#7969562666173
0"
#7973753952589
b100010100000000000000001 !
#7973756202877
b100010100000000000000000 !
#7973759203261
b100000000000000000 !
1"
#7973765162357
0"
#7973786706781
1"
b10000000000000000 !
#7973787206845
0"
#7973804084005
b11011101000000000 !
#7973806334293
b11011101001100010 !
#7973809334677
b1011011101001100010 !
1"
#7973809459693
0"
#7973832837685
b1011010111001100010 !
#7973835087973
b1011010111000010011 !
#7973838088357
b1001010111000010011 !
1"
#7973838588421
0"
#7973857090789
b1000001100000010011 !
#7973859341077
b1000001100010000000 !
#7973862341461
b11110000001100010000000 !
1"
#7973862466477
0"
#7974294896821
b11110000000000010000000 !
#7974297147109
b11110000000000000000000 !
#7974300147493
b100000000000000000 !
1"
#7974300772573
0"
#7974313274173
b101111111100000000 !
#7974315524461
b101111111100100111 !
#7974318524845
b100100111111111100100111 !
1"
#7974321900277
0"
#7974333776797
b100100111111111100000111 !
#7974336777181
b110110011111111100000111 !
1"
#7974337360589
0"
#7974364405717
b110110010000000000000111 !
#7974366656005
b110110010000000000000000 !
#7974369656389
b101110100000000000000000 !
1"
#7974377574069
0"
#7974392034253
1"
b10000000000000000 !
#7974393034381
0"
#7974407786269
b10000000010000000 !
#7974410786653
b110000000010000000 !
1"
#7974411286717
0"
#7974729702469
b110011101010000000 !
#7974731952757
b110011101000000101 !
#7974734953141
b1100011101000000101 !
1"
#7974735328189
0"
#7974835841053
b1101100000000000101 !
#7974838091341
b1101100000000110010 !
#7974841091725
b101100000000110010 !
1"
#7974841591789
0"
#7975613940637
b100000000000110010 !
#7975616190925
b100000000000000000 !
#7975619191309
b10100000000000000000 !
1"
#7975621024877
0"
#7975646694829
1"
b10010000000000000000 !
#7975647028205
0"
#7975664072053
b10011011101000000000 !
#7975666322341
b10011011101001100010 !
#7975669322725
b11011011101001100010 !
1"
#7975673531597
0"
#7975692825733
b11011010111001100010 !
#7975695076021
b11011010111000010011 !
#7975698076405
b11001010111000010011 !
1"
#7975698326437
0"
#7975717453885
b11000001100000010011 !
#7975719704173
b11000001100010000000 !
#7975722704557
b1100010000000 !
1"
#7975729205389
0"
#7976155009885
b10000000 !
#7976157260173
b0 !
#7976160260557
b10100000000000000000 !
1"
#7976160760621
0"
#7976173262221
b10101111111100000000 !
#7976175512509
b10101111111100100111 !
#7976178512893
b100100111111111100100111 !
1"
#7976180679837
0"
#7976193764845
b100100111111111100000111 !
#7976196765229
b110110011111111100000111 !
1"
#7976197390309
0"
#7976224268749
b110110010000000000000111 !
#7976226519037
b110110010000000000000000 !
#7976229519421
b101110110000000000000000 !
1"
#7976230269517
0"
#7976251897285
1"
b10010000000000000000 !
#7976253064101
0"
#7976267649301
b10010000000010000000 !
#7976270649685
b10110000000010000000 !
1"
#7976271108077
0"
#7976589690517
b10110011101010000000 !
#7976591940805
b10110011101000000101 !
#7976594941189
b11100011101000000101 !
1"
#7976595149549
0"
#7976695454053
b11100000000000000101 !
#7976697704341
b11100000000000100110 !
#7976700704725
b10100000000000100110 !
1"
#7976700829741
0"
#7977587693245
b10100000000000000000 !
#7977590693629
b100100000000000000000 !
1"
#7977591235365
0"
#7977612946477
b100101100000000000000 !
#7977615196765
b100101100000000000011 !
#7977618197149
b100011100000000000011 !
1"
#7977622114317
0"
#7977635699389
b100011100000100000011 !
#7977637949677
b100011100000101001011 !
#7977640950061
b101011100000101001011 !
1"
#7977641200093
0"
#7977664453069
b101011101011001001011 !
#7977666703357
b101011101011000111001 !
#7977669703741
b101001101011000111001 !
1"
#7977677788109
0"
#7977688706173
b101000001010100111001 !
#7977690956461
b101000001010110000000 !
#7977693956845
b10000001010110000000 !
1"
#7977694373565
0"
#7978125887125
b10000000000010000000 !
#7978128137413
b10000000000000000000 !
#7978131137797
b100100000000000000000 !
1"
#7978131429501
0"
#7978144139461
b100101111111100000000 !
#7978146389749
b100101111111100100111 !
#7978149390133
b100100111111111100100111 !
1"
#7978149681837
0"
#7978164642085
b100100111111111100000111 !
#7978167642469
b110110011111111100000111 !
1"
#7978167809157
0"
#7978195145989
b110110011000100000000111 !
#7978197396277
b110110011000100000100001 !
#7978200396661
b101111001000100000100001 !
1"
#7978200563349
0"
#7978217523853
b101111001100000000100001 !
#7978219774141
b101111001100000000000011 !
#7978222774525
b100011100000000000011 !
1"
#7978222982885
0"
#7978236276253
b100010000000000000011 !
#7978238526541
b100010000000010000000 !
#7978241526925
b100110000000010000000 !
1"
#7978241943645
0"
#7978560317725
b100110011101010000000 !
#7978562568013
b100110011101000000101 !
#7978565568397
b101100011101000000101 !
1"
#7978568568781
0"
#7978647578893
b101101101010000000101 !
#7978649954197
b101101101010000000010 !
#7978652954581
b100101101010000000010 !
1"
#7978653079597
0"
#7979516440093
b100100000000000000010 !
#7979518690381
b100100000000000000000 !
#7979521690765
b110100000000000000000 !
1"
#7979522440861
0"
#7979543943613
b110101000001000000000 !
#7979546193901
b110101000001000000010 !
#7979549194285
b110011000001000000010 !
1"
#7979555236725
0"
#7979566571509
b110010010101000000010 !
#7979568821797
b110010010101001001100 !
#7979571822181
b111010010101001001100 !
1"
#7979573864109
0"
#7979595325189
b111011001110101001100 !
#7979597575477
b111011001110100101111 !
#7979600575861
b111001001110100101111 !
1"
#7979600867565
0"
#7979619828325
b111000001011000101111 !
#7979622078613
b111000001011010000000 !
#7979625078997
b100000001011010000000 !
1"
#7979626370829
0"
#7980000126997
b100000000000010000000 !
#7980002377285
b100000000000000000000 !
#7980005377669
b110100000000000000000 !
1"
#7980005544357
0"
#7980018379333
b110101111111100000000 !
#7980020629621
b110101111111100100111 !
#7980023630005
b100100111111111100100111 !
1"
#7980024338429
0"
#7980038881957
b100100111111111100000111 !
#7980041882341
b110110011111111100000111 !
1"
#7980042257389
0"
#7980069510877
b110110011000100000000111 !
#7980071761165
b110110011000100000100001 !
#7980074761549
b101111011000100000100001 !
1"
#7980075303285
0"
#7980091888741
b101111011000001000100001 !
#7980094139029
b101111011000001000000010 !
#7980097139413
b110011000001000000010 !
1"
#7980097264429
0"
#7980110891173
b110010000000000000010 !
#7980113141461
b110010000000010000000 !
#7980116141845
b110110000000010000000 !
1"
#7980116391877
0"
#7980435307693
b110110011101010000000 !
#7980437557981
b110110011101000000101 !
#7980440558365
b111100011101000000101 !
1"
#7980446017397
0"
#7980531945061
b111100000000000000101 !
#7980534195349
b111100000000000001000 !
#7980537195733
b110100000000000001000 !
1"
#7980538737597
0"
#7981332422509
b110100000000000000000 !
#7981335422893
b1000100000000000000000 !
1"
#7981336798069
0"
#7981357675741
b1000101111010000000000 !
#7981359926029
b1000101111010010000001 !
#7981362926413
b1000011111010010000001 !
1"
#7981363843197
0"
#7981380428653
b1000010000110010000001 !
#7981382678941
b1000010000110011001011 !
#7981385679325
b1001010000110011001011 !
1"
#7981392471861
0"
#7981419183613
b1001011000010111001011 !
#7981423184125
b1001011000010100111000 !
#7981426184509
b1001001000010100111000 !
1"
#7981427017949
0"
#7981445311957
b1001000001010100111000 !
#7981447562245
b1001000001010110000000 !
#7981450562629
b110000001010110000000 !
1"
#7981450812661
0"
#7981827485869
b110000000000010000000 !
#7981829736157
b110000000000000000000 !
#7981832736541
b1000100000000000000000 !
1"
#7981837862197
0"
#7981845738205
b1000101111111100000000 !
#7981847988493
b1000101111111100100111 !
#7981850988877
b100100111111111100100111 !
1"
#7981853322509
0"
#7981866240829
b100100111111111100000111 !
#7981869241213
b110110011111111100000111 !
1"
#7981869907965
0"
#7981896869749
b110110010101000000000111 !
#7981899120037
b110110010101000000001010 !
#7981902120421
b101111100101000000001010 !
1"
#7981908996301
0"
#7981919497645
b101111101111010000001010 !
#7981921747933
b101111101111010010000001 !
#7981924748317
b1000011111010010000001 !
1"
#7981925581757
0"
#7981938500077
b1000010000000010000001 !
#7981940750365
b1000010000000010000000 !
#7981943750749
b1000110000000010000000 !
1"
#7981949209781
0"
#7982263041613
b1000110101011110000000 !
#7982265291901
b1000110101011100000101 !
#7982268292285
b1001100101011100000101 !
1"
#7982268542317
0"
#7982355178405
b1001100000000000000101 !
#7982357428693
b1001100000000000000100 !
#7982360429077
b1000100000000000000100 !
1"
#7982360970813
0"
#7983135653293
b1000100000000000000000 !
#7983138653677
b1010100000000000000000 !
1"
#7983139903837
0"
#7983163156813
b1010100000000010000001 !
#7983166157197
b1010010000000010000001 !
1"
#7983174033205
0"
#7983183534421
b1010011000100010000001 !
#7983185784709
b1010011000100011100111 !
#7983188785093
b1011011000100011100111 !
1"
#7983189493517
0"
#7983212413117
b1011010110000111100111 !
#7983214663405
b1011010110000101000011 !
#7983217663789
b1011000110000101000011 !
1"
#7983217997165
0"
#7983236666221
b1011000001100001000011 !
#7983238916509
b1011000001100010000000 !
#7983241916893
b1000000001100010000000 !
1"
#7983245167309
0"
#7983617464957
b1000000000000010000000 !
#7983619715245
b1000000000000000000000 !
#7983622715629
b1010100000000000000000 !
1"
#7983622840645
0"
#7983635717293
b1010101111111100000000 !
#7983637967581
b1010101111111100100111 !
#7983640967965
b100100111111111100100111 !
1"
#7983641468029
0"
#7983656219917
b100100111111111100000111 !
#7983659220301
b110110011111111100000111 !
1"
#7983659678693
0"
#7983686723821
b110110010101000000000111 !
#7983688974109
b110110010101000000001010 !
#7983691974493
b101111110101000000001010 !
1"
#7983693182981
0"
#7983709101685
b101111110000000000001010 !
#7983711351973
b101111110000000010000001 !
#7983714352357
b1010010000000010000001 !
1"
#7983715352485
0"
#7983730104373
b1010010000000010000000 !
#7983733104757
b1010110000000010000000 !
1"
#7983733438133
0"
#7984053145717
b1010110111011010000000 !
#7984055396005
b1010110111011000000101 !
#7984058396389
b1011100111011000000101 !
1"
#7984064813877
0"
#7984150033117
b1011101011000000000101 !
#7984152283405
b1011101011000000001100 !
#7984155283789
b1010101011000000001100 !
1"
#7984157534077
0"
#7984927632637
b1010100000000000001100 !
#7984929882925
b1010100000000000000000 !
#7984932883309
b1100100000000000000000 !
1"
#7984933633405
0"
#7984960386829
1"
b1100010000000000000000 !
#7984960511845
0"
#7984977764053
b1100010101110100000000 !
#7984980014341
b1100010101110101110011 !
#7984983014725
b1101010101110101110011 !
1"
#7984983473117
0"
#7985006517733
b1101010000111001110011 !
#7985008768021
b1101010000111000000000 !
#7985011768405
b1101000000111000000000 !
1"
#7985011893421
0"
#7985106780565
b1101000001101000000000 !
#7985109030853
b1101000001101010000000 !
#7985112031237
b1010000001101010000000 !
1"
#7985112239597
0"
#7985544211549
b1010000000000010000000 !
#7985546461837
b1010000000000000000000 !
#7985549462221
b1100100000000000000000 !
1"
#7985550587365
0"
#7985562588901
b1100101111111100000000 !
#7985564839189
b1100101111111100100111 !
#7985567839573
b100100111111111100100111 !
1"
#7985568006261
0"
#7985583091525
b100100111111111100000111 !
#7985586091909
b110110011111111100000111 !
1"
#7985586633645
0"
#7985613595429
b110110010000000000000111 !
#7985615845717
b110110010000000000000000 !
#7985618846101
b110000000000000000000000 !
1"
#7985623680053
0"
#7985641223965
1"
b1100010000000000000000 !
#7985642307437
0"
#7985656975981
b1100010000000010000000 !
#7985659976365
b1100110000000010000000 !
1"
#7985660726461
0"
#7985979142213
b1100111000010010000000 !
#7985981392501
b1100111000010000001101 !
#7985984392885
b1101101000010000001101 !
1"
#7985984767933
0"
#7986080780221
b1101101110000000001101 !
#7986083030509
b1101101110000000010001 !
#7986086030893
b1100101110000000010001 !
1"
#7986087156037
0"
#7986936014677
b1100100000000000010001 !
#7986938264965
b1100100000000000000000 !
#7986941265349
b10000100000000000000000 !
1"
#7986942432165
0"
#7986968893885
1"
b10000010000000000000000 !
#7986975311373
0"
#7986986271109
b10000010101100100000000 !
#7986988521397
b10000010101100101110101 !
#7986991521781
b10001010101100101110101 !
1"
#7986991896829
0"
#7987015024789
b10001010101000101110101 !
#7987017275077
b10001010101000101010001 !
#7987020275461
b10001000101000101010001 !
1"
#7987020442149
0"
#7987039402909
b10001000001011101010001 !
#7987041653197
b10001000001011110000000 !
#7987044653581
b1110000001011110000000 !
1"
#7987045070301
0"
#7987511338309
b1110000000000010000000 !
#7987513588597
b1110000000000000000000 !
#7987516588981
b10000100000000000000000 !
1"
#7987516839013
0"
#7987529590645
b10000101111111100000000 !
#7987531840933
b10000101111111100100111 !
#7987534841317
b100100111111111100100111 !
1"
#7987535216365
0"
#7987550093269
b100100111111111100000111 !
#7987553093653
b110110011111111100000111 !
1"
#7987553635389
0"
#7987580597173
b110110010000000000000111 !
#7987582847461
b110110010000000000000000 !
#7987585847845
b110000100000000000000000 !
1"
#7987587723085
0"
#7987608225709
1"
b10000010000000000000000 !
#7987609309181
0"
#7987623977725
b10000010000000010000000 !
#7987626978109
b10000110000000010000000 !
1"
#7987627936565
0"
#7987945768909
b10000110111011010000000 !
#7987948019197
b10000110111011000000101 !
