cores/cps15/ver/game/wof_coin.vcd
$comment
TOOL:	simvision	15.20-s050
$end

$date
    Nov 17, 2020 10:45:15
$end

$timescale
    1ps
$end


$scope module mist_test $end

$scope module UUT $end

$scope module u_game $end

$scope module u_sound $end
$var wire 24 ! cpu2dsp0 [23:0] $end
$upscope $end

$upscope $end

$upscope $end


$scope module u_dump $end
$var integer 32 " frame_cnt [31:0] $end
$upscope $end

$upscope $end

$enddefinitions $end
#0
$dumpvars
b0 !
b0 "
$end
#390675
b1 "
#15362356755
b10 "
#32132503059
b11 "
#48902649363
b100 "
#65672795667
b101 "
#82442941971
b110 "
#99213088275
b111 "
#115983234579
b1000 "
#132753380883
b1001 "
#149523527187
b1010 "
#166293673491
b1011 "
#183063819795
b1100 "
#199833966099
b1101 "
#216604112403
b1110 "
#233374258707
b1111 "
#250144405011
b10000 "
#266914551315
b10001 "
#283684697619
b10010 "
#300454843923
b10011 "
#317224990227
b10100 "
#333995136531
b10101 "
#350765282835
b10110 "
#367535429139
b10111 "
#384305575443
b11000 "
#401075721747
b11001 "
#417845868051
b11010 "
#434616014355
b11011 "
#451386160659
b11100 "
#468156306963
b11101 "
#484926453267
b11110 "
#501696599571
b11111 "
#518466745875
b100000 "
#535236892179
b100001 "
#552007038483
b100010 "
#568777184787
b100011 "
#585547331091
b100100 "
#602317477395
b100101 "
#619087623699
b100110 "
#635857770003
b100111 "
#652627916307
b101000 "
#669398062611
b101001 "
#686168208915
b101010 "
#702938355219
b101011 "
#719708501523
b101100 "
#736478647827
b101101 "
#753248794131
b101110 "
#770018940435
b101111 "
#786789086739
b110000 "
#803559233043
b110001 "
#820329379347
b110010 "
#837099525651
b110011 "
#853869671955
b110100 "
#870639818259
b110101 "
#887409964563
b110110 "
#904180110867
b110111 "
#920950257171
b111000 "
#937720403475
b111001 "
#954490549779
b111010 "
#971260696083
b111011 "
#988030842387
b111100 "
#1004800988691
b111101 "
#1021571134995
b111110 "
#1038341281299
b111111 "
#1055111427603
b1000000 "
#1071881573907
b1000001 "
#1088651720211
b1000010 "
#1105421866515
b1000011 "
#1122192012819
b1000100 "
#1138962159123
b1000101 "
#1155732305427
b1000110 "
#1172502451731
b1000111 "
#1189272598035
b1001000 "
#1206042744339
b1001001 "
#1222812890643
b1001010 "
#1239583036947
b1001011 "
#1256353183251
b1001100 "
#1273123329555
b1001101 "
#1289893475859
b1001110 "
#1306663622163
b1001111 "
#1320776855509
b110111100000000000000000 !
#1320798733309
b110111110000000000101110 !
#1320853240285
b111000000000000000000000 !
#1320907747261
b111000010000000000110000 !
#1320965879701
b111001000011111111111111 !
#1321020386677
b111001010011111111111111 !
#1321078519117
b111001100011111111111111 !
#1321133026093
b111001110011111111111111 !
#1321191158533
b111000101111111111111111 !
#1321245665509
b110110100000110110110010 !
#1321303797949
b110111000000111000010001 !
#1321358304925
b111000110000000000111001 !
#1321417687525
b101110100000000000000000 !
#1321470944341
b1100000000000000000 !
#1321527451573
b100000000000000000 !
#1321584708901
b101110110000000000000000 !
#1321641591181
b11100000000000000000 !
#1321727102125
b10100000000000000000 !
#1321784359453
b101111000000000000000000 !
#1321841366749
b101100000000000000000 !
#1321897873981
b100100000000000000000 !
#1321951505845
b101111010000000000000000 !
#1322008388125
b111100000000000000000 !
#1322064895357
b110100000000000000000 !
#1322122152685
b101111100000000000000000 !
#1322175409501
b1001100000000000000000 !
#1322232041749
b1000100000000000000000 !
#1322289299077
b101111110000000000000000 !
#1322346181357
b1011100000000000000000 !
#1322402688589
b1010100000000000000000 !
#1322456320453
b110000000000000000000000 !
#1322513202733
b1101100000000000000000 !
#1322569709965
b1100100000000000000000 !
#1322626967293
b110000010000000000000000 !
#1322680224109
b1111100000000000000000 !
#1322736731341
b1110100000000000000000 !
#1322793988669
b110000100000000000000000 !
#1322850870949
b10001100000000000000000 !
#1322903752717
b10000100000000000000000 !
#1322961010045
b110000110000000000000000 !
#1323017892325
b10011100000000000000000 !
#1323074399557
b10010100000000000000000 !
#1323128031421
b110001000000000000000000 !
#1323185038717
b10101100000000000000000 !
#1323241545949
b10100100000000000000000 !
#1323298803277
b110001010000000000000000 !
#1323352060093
b10111100000000000000000 !
#1323408567325
b10110100000000000000000 !
#1323433768467
b1010000 "
#1323465824653
b110001100000000000000000 !
#1323522831949
b11001100000000000000000 !
#1323579339181
b11000100000000000000000 !
#1323632971045
b110001110000000000000000 !
#1323689853325
b11011100000000000000000 !
#1323746360557
b11010100000000000000000 !
#1323803617885
b110010000000000000000000 !
#1323856874701
b11101100000000000000000 !
#1323913381933
b11100100000000000000000 !
#1323970639261
b110010010000000000000000 !
#1324027521541
b11111100000000000000000 !
#1324084028773
b11110100000000000000000 !
#1324140160957
b110011010000000000000000 !
#1324207544581
b110101100000000000000001 !
#1324251050149
b110100010000000000000000 !
#1324305182077
b110101110000000000000001 !
#1324363189501
b110101010000000000000000 !
#1324420946893
b110110000000000000000001 !
#1340203914771
b1010001 "
#1356974061075
b1010010 "
#1373744207379
b1010011 "
#1390514353683
b1010100 "
#1397984736853
b101110100000000000000000 !
#1398005364493
b1100000000000000000 !
#1398058246261
b100000000000000000 !
#1398115503589
b101110110000000000000000 !
#1398172385869
b11100000000000000000 !
#1398225267637
b10100000000000000000 !
#1398282524965
b101111000000000000000000 !
#1398339407245
b101100000000000000000 !
#1398395914477
b100100000000000000000 !
#1398449546341
b101111010000000000000000 !
#1398506428621
b111100000000000000000 !
#1398562935853
b110100000000000000000 !
#1398620193181
b101111100000000000000000 !
#1398673449997
b1001100000000000000000 !
#1398729957229
b1000100000000000000000 !
#1398787339573
b101111110000000000000000 !
#1398844346869
b1011100000000000000000 !
#1398900854101
b1010100000000000000000 !
#1398954485965
b110000000000000000000000 !
#1399011368245
b1101100000000000000000 !
#1399067875477
b1100100000000000000000 !
#1399125132805
b110000010000000000000000 !
#1399178389621
b1111100000000000000000 !
#1399235021869
b1110100000000000000000 !
#1399292279197
b110000100000000000000000 !
#1399349161477
b10001100000000000000000 !
#1399402043245
b10000100000000000000000 !
#1399459300573
b110000110000000000000000 !
#1399516182853
b10011100000000000000000 !
#1399572690085
b10010100000000000000000 !
#1399626446965
b110001000000000000000000 !
#1399683329245
b10101100000000000000000 !
#1399739836477
b10100100000000000000000 !
#1399797093805
b110001010000000000000000 !
#1399850350621
b10111100000000000000000 !
#1399906857853
b10110100000000000000000 !
#1399964115181
b110001100000000000000000 !
#1400021247493
b11001100000000000000000 !
#1400074129261
b11000100000000000000000 !
#1400131511605
b110001110000000000000000 !
#1400208896509
b11011100000000000000000 !
#1400243650957
b11010100000000000000000 !
#1400300908285
b110010000000000000000000 !
#1400354165101
b11101100000000000000000 !
#1400410672333
b11100100000000000000000 !
#1400467929661
b110010010000000000000000 !
#1400524811941
b11111100000000000000000 !
#1400581319173
b11110100000000000000000 !
#1400637451357
b110011010000000000000000 !
#1400691583285
b110101100000000000000001 !
#1400749590709
b110100010000000000000000 !
#1400803722637
b110101110000000000000001 !
#1400861730061
b110101010000000000000000 !
#1400915861989
b110110000000000000000001 !
#1407284499987
b1010101 "
#1424054646291
b1010110 "
#1440824792595
b1010111 "
#1457594938899
b1011000 "
#1474365085203
b1011001 "
#1491135231507
b1011010 "
#1507905377811
b1011011 "
#1524675524115
b1011100 "
#1541445670419
b1011101 "
#1558215816723
b1011110 "
#1574985963027
b1011111 "
#1591756109331
b1100000 "
#1608526255635
b1100001 "
#1625296401939
b1100010 "
#1642066548243
b1100011 "
#1658836694547
b1100100 "
#1675606840851
b1100101 "
#1692376987155
b1100110 "
#1709147133459
b1100111 "
#1725917279763
b1101000 "
#1742687426067
b1101001 "
#1759457572371
b1101010 "
#1776227718675
b1101011 "
#1792997864979
b1101100 "
#1809768011283
b1101101 "
#1826538157587
b1101110 "
#1843308303891
b1101111 "
#1860078450195
b1110000 "
#1876848596499
b1110001 "
#1893618742803
b1110010 "
#1910388889107
b1110011 "
#1927159035411
b1110100 "
#1943929181715
b1110101 "
#1960699328019
b1110110 "
#1977469474323
b1110111 "
#1994239620627
b1111000 "
#2011009766931
b1111001 "
#2027779913235
b1111010 "
#2044550059539
b1111011 "
#2061320205843
b1111100 "
#2078090352147
b1111101 "
#2094860498451
b1111110 "
#2111630644755
b1111111 "
#2128400791059
b10000000 "
#2145170937363
b10000001 "
#2161941083667
b10000010 "
#2178711229971
b10000011 "
#2195481376275
b10000100 "
#2212251522579
b10000101 "
#2229021668883
b10000110 "
#2245791815187
b10000111 "
#2262561961491
b10001000 "
#2279332107795
b10001001 "
#2296102254099
b10001010 "
#2312872400403
b10001011 "
#2329642546707
b10001100 "
#2346412693011
b10001101 "
#2363182839315
b10001110 "
#2379952985619
b10001111 "
#2396723131923
b10010000 "
#2413493278227
b10010001 "
#2430263424531
b10010010 "
#2447033570835
b10010011 "
#2463803717139
b10010100 "
#2480573863443
b10010101 "
#2497344009747
b10010110 "
#2514114156051
b10010111 "
#2530884302355
b10011000 "
#2547654448659
b10011001 "
#2564424594963
b10011010 "
#2581194741267
b10011011 "
#2597964887571
b10011100 "
#2614735033875
b10011101 "
#2631505180179
b10011110 "
#2648275326483
b10011111 "
#2665045472787
b10100000 "
#2681815619091
b10100001 "
#2698585765395
b10100010 "
#2715355911699
b10100011 "
#2732126058003
b10100100 "
#2748896204307
b10100101 "
#2765666350611
b10100110 "
#2782436496915
b10100111 "
#2799206643219
b10101000 "
#2815976789523
b10101001 "
#2832746935827
b10101010 "
#2849517082131
b10101011 "
#2866287228435
b10101100 "
#2883057374739
b10101101 "
#2899827521043
b10101110 "
#2916597667347
b10101111 "
#2933367813651
b10110000 "
#2950137959955
b10110001 "
#2966908106259
b10110010 "
#2983678252563
b10110011 "
#3000448398867
b10110100 "
#3017218545171
b10110101 "
#3033988691475
b10110110 "
#3050758837779
b10110111 "
#3067528984083
b10111000 "
#3084299130387
b10111001 "
#3101069276691
b10111010 "
#3117839422995
b10111011 "
#3134609569299
b10111100 "
#3151379715603
b10111101 "
#3168149861907
b10111110 "
#3184920008211
b10111111 "
#3201690154515
b11000000 "
#3218460300819
b11000001 "
#3235230447123
b11000010 "
#3252000593427
b11000011 "
#3268770739731
b11000100 "
#3285540886035
b11000101 "
#3302311032339
b11000110 "
#3319081178643
b11000111 "
#3335851324947
b11001000 "
#3352621471251
b11001001 "
#3369391617555
b11001010 "
#3386161763859
b11001011 "
#3402931910163
b11001100 "
#3419702056467
b11001101 "
#3436472202771
b11001110 "
#3453242349075
b11001111 "
#3470012495379
b11010000 "
#3486782641683
b11010001 "
#3503552787987
b11010010 "
#3520322934291
b11010011 "
#3537093080595
b11010100 "
#3553863226899
b11010101 "
#3570633373203
b11010110 "
#3587403519507
b11010111 "
#3604173665811
b11011000 "
#3620943812115
b11011001 "
#3637713958419
b11011010 "
#3654484104723
b11011011 "
#3671254251027
b11011100 "
#3688024397331
b11011101 "
#3704794543635
b11011110 "
#3721564689939
b11011111 "
#3738334836243
b11100000 "
#3755104982547
b11100001 "
#3771875128851
b11100010 "
#3788645275155
b11100011 "
#3805415421459
b11100100 "
#3822185567763
b11100101 "
#3838955714067
b11100110 "
#3855725860371
b11100111 "
#3872496006675
b11101000 "
#3889266152979
b11101001 "
#3906036299283
b11101010 "
#3922806445587
b11101011 "
#3939576591891
b11101100 "
#3956346738195
b11101101 "
#3973116884499
b11101110 "
#3989887030803
b11101111 "
#4006657177107
b11110000 "
#4023427323411
b11110001 "
#4040197469715
b11110010 "
#4056967616019
b11110011 "
#4073737762323
b11110100 "
#4090507908627
b11110101 "
#4107278054931
b11110110 "
#4124048201235
b11110111 "
#4140818347539
b11111000 "
#4157588493843
b11111001 "
#4174358640147
b11111010 "
#4191128786451
b11111011 "
#4207898932755
b11111100 "
#4224669079059
b11111101 "
#4241439225363
b11111110 "
#4258209371667
b11111111 "
#4274979517971
b100000000 "
#4291749664275
b100000001 "
#4308519810579
b100000010 "
#4325289956883
b100000011 "
#4342060103187
b100000100 "
#4358830249491
b100000101 "
#4375600395795
b100000110 "
#4392370542099
b100000111 "
#4409140688403
b100001000 "
#4425910834707
b100001001 "
#4442680981011
b100001010 "
#4459451127315
b100001011 "
#4476221273619
b100001100 "
#4492991419923
b100001101 "
#4509761566227
b100001110 "
#4526531712531
b100001111 "
#4543301858835
b100010000 "
#4560072005139
b100010001 "
#4576842151443
b100010010 "
#4593612297747
b100010011 "
#4610382444051
b100010100 "
#4627152590355
b100010101 "
#4643922736659
b100010110 "
#4660692882963
b100010111 "
#4677463029267
b100011000 "
#4694233175571
b100011001 "
#4711003321875
b100011010 "
#4727773468179
b100011011 "
#4744543614483
b100011100 "
#4761313760787
b100011101 "
#4778083907091
b100011110 "
#4794854053395
b100011111 "
#4811624199699
b100100000 "
#4828394346003
b100100001 "
#4845164492307
b100100010 "
#4861934638611
b100100011 "
#4878704784915
b100100100 "
#4895474931219
b100100101 "
#4912245077523
b100100110 "
#4929015223827
b100100111 "
#4945785370131
b100101000 "
#4962555516435
b100101001 "
#4979325662739
b100101010 "
#4996095809043
b100101011 "
#5012865955347
b100101100 "
#5029636101651
b100101101 "
#5046406247955
b100101110 "
#5063176394259
b100101111 "
#5079946540563
b100110000 "
#5096716686867
b100110001 "
#5113486833171
b100110010 "
#5130256979475
b100110011 "
#5147027125779
b100110100 "
#5163797272083
b100110101 "
#5180567418387
b100110110 "
#5197337564691
b100110111 "
#5214107710995
b100111000 "
#5230877857299
b100111001 "
#5247648003603
b100111010 "
#5264418149907
b100111011 "
#5281188296211
b100111100 "
#5297958442515
b100111101 "
#5314728588819
b100111110 "
#5331498735123
b100111111 "
#5348268881427
b101000000 "
#5365039027731
b101000001 "
#5381809174035
b101000010 "
#5398579320339
b101000011 "
#5415349466643
b101000100 "
#5432119612947
b101000101 "
#5448889759251
b101000110 "
#5465659905555
b101000111 "
#5482430051859
b101001000 "
#5499200198163
b101001001 "
#5515970344467
b101001010 "
#5532740490771
b101001011 "
#5549510637075
b101001100 "
#5566280783379
b101001101 "
#5583050929683
b101001110 "
#5599821075987
b101001111 "
#5616591222291
b101010000 "
#5633361368595
b101010001 "
#5650131514899
b101010010 "
#5666901661203
b101010011 "
#5683671807507
b101010100 "
#5700441953811
b101010101 "
#5717212100115
b101010110 "
#5733982246419
b101010111 "
#5750752392723
b101011000 "
#5767522539027
b101011001 "
#5784292685331
b101011010 "
#5801062831635
b101011011 "
#5817832977939
b101011100 "
#5834603124243
b101011101 "
#5851373270547
b101011110 "
#5868143416851
b101011111 "
#5884913563155
b101100000 "
#5901683709459
b101100001 "
#5918453855763
b101100010 "
#5935224002067
b101100011 "
#5951994148371
b101100100 "
#5968764294675
b101100101 "
#5985534440979
b101100110 "
#6002304587283
b101100111 "
#6019074733587
b101101000 "
#6035844879891
b101101001 "
#6052615026195
b101101010 "
#6069385172499
b101101011 "
#6086155318803
b101101100 "
#6102925465107
b101101101 "
#6119695611411
b101101110 "
#6136465757715
b101101111 "
#6153235904019
b101110000 "
#6170006050323
b101110001 "
#6186776196627
b101110010 "
#6203546342931
b101110011 "
#6220316489235
b101110100 "
#6237086635539
b101110101 "
#6253856781843
b101110110 "
#6270626928147
b101110111 "
#6287397074451
b101111000 "
#6304167220755
b101111001 "
#6320937367059
b101111010 "
#6337707513363
b101111011 "
#6354477659667
b101111100 "
#6371247805971
b101111101 "
#6388017952275
b101111110 "
#6404788098579
b101111111 "
#6421558244883
b110000000 "
#6438328391187
b110000001 "
#6455098537491
b110000010 "
#6471868683795
b110000011 "
#6488638830099
b110000100 "
#6505408976403
b110000101 "
#6522179122707
b110000110 "
#6538949269011
b110000111 "
#6555719415315
b110001000 "
#6572489561619
b110001001 "
#6589259707923
b110001010 "
#6606029854227
b110001011 "
#6622800000531
b110001100 "
#6639570146835
b110001101 "
#6656340293139
b110001110 "
#6673110439443
b110001111 "
#6689880585747
b110010000 "
#6706650732051
b110010001 "
#6723420878355
b110010010 "
#6740191024659
b110010011 "
#6756961170963
b110010100 "
#6773731317267
b110010101 "
#6790501463571
b110010110 "
#6807271609875
b110010111 "
#6824041756179
b110011000 "
#6840811902483
b110011001 "
#6857582048787
b110011010 "
#6874352195091
b110011011 "
#6891122341395
b110011100 "
#6907892487699
b110011101 "
#6924662634003
b110011110 "
#6941432780307
b110011111 "
#6958202926611
b110100000 "
#6974973072915
b110100001 "
#6991743219219
b110100010 "
#6998701036789
b101110100000000000000000 !
#6998739791749
b1100000000000000000 !
#6998796423997
b100000000000000000 !
#6998853806341
b101110110000000000000000 !
#6998910688621
b11100000000000000000 !
#6998963570389
b10100000000000000000 !
#6999020827717
b101111000000000000000000 !
#6999077709997
b101100000000000000000 !
#6999134217229
b100100000000000000000 !
#6999187849093
b101111010000000000000000 !
#6999245231437
b111100000000000000000 !
#6999301738669
b110100000000000000000 !
#6999358995997
b101111100000000000000000 !
#6999412252813
b1001100000000000000000 !
#6999468760045
b1000100000000000000000 !
#6999526017373
b101111110000000000000000 !
#6999583024669
b1011100000000000000000 !
#6999635906437
b1010100000000000000000 !
#6999693288781
b110000000000000000000000 !
#6999750171061
b1101100000000000000000 !
#6999806678293
b1100100000000000000000 !
#6999860310157
b110000010000000000000000 !
#6999917192437
b1111100000000000000000 !
#6999973699669
b1110100000000000000000 !
#7000030956997
b110000100000000000000000 !
#7000084213813
b10001100000000000000000 !
#7000140721045
b10000100000000000000000 !
#7000197978373
b110000110000000000000000 !
#7000254860653
b10011100000000000000000 !
#7000311367885
b10010100000000000000000 !
#7000364999749
b110001000000000000000000 !
#7000421882029
b10101100000000000000000 !
#7000478389261
b10100100000000000000000 !
#7000535646589
b110001010000000000000000 !
#7000588903405
b10111100000000000000000 !
#7000645410637
b10110100000000000000000 !
#7000702667965
b110001100000000000000000 !
#7000759550245
b11001100000000000000000 !
#7000816057477
b11000100000000000000000 !
#7000869689341
b110001110000000000000000 !
#7000932572389
b11011100000000000000000 !
#7000981828693
b11010100000000000000000 !
#7001039086021
b110010000000000000000000 !
#7001095968301
b11101100000000000000000 !
#7001152475533
b11100100000000000000000 !
#7001206107397
b110010010000000000000000 !
#7001262989677
b11111100000000000000000 !
#7001319496909
b11110100000000000000000 !
#7001375754109
b110011010000000000000000 !
#7001429886037
b110101100000000000000001 !
#7001488018477
b110100010000000000000000 !
#7001542275421
b110101110000000000000001 !
#7001600282845
b110101010000000000000000 !
#7001654414773
b110110000000000000000001 !
#7008513365523
b110100011 "
#7025283511827
b110100100 "
#7042053658131
b110100101 "
#7058823804435
b110100110 "
#7075593950739
b110100111 "
#7092364097043
b110101000 "
#7109134243347
b110101001 "
#7125904389651
b110101010 "
#7142674535955
b110101011 "
#7159444682259
b110101100 "
#7176214828563
b110101101 "
#7192984974867
b110101110 "
#7209755121171
b110101111 "
#7226525267475
b110110000 "
#7243295413779
b110110001 "
#7260065560083
b110110010 "
#7276835706387
b110110011 "
#7293605852691
b110110100 "
#7310375998995
b110110101 "
#7327146145299
b110110110 "
#7343916291603
b110110111 "
#7360686437907
b110111000 "
#7377456584211
b110111001 "
#7394226730515
b110111010 "
#7410996876819
b110111011 "
#7427767023123
b110111100 "
#7444537169427
b110111101 "
#7461307315731
b110111110 "
#7478077462035
b110111111 "
#7494847608339
b111000000 "
#7511617754643
b111000001 "
#7528387900947
b111000010 "
#7545158047251
b111000011 "
#7561928193555
b111000100 "
#7578698339859
b111000101 "
#7595468486163
b111000110 "
#7612238632467
b111000111 "
#7629008778771
b111001000 "
#7645778925075
b111001001 "
#7662549071379
b111001010 "
#7679319217683
b111001011 "
#7696089363987
b111001100 "
#7712859510291
b111001101 "
#7729629656595
b111001110 "
#7746399802899
b111001111 "
#7763169949203
b111010000 "
#7779940095507
b111010001 "
#7796710241811
b111010010 "
#7813480388115
b111010011 "
#7830250534419
b111010100 "
#7847020680723
b111010101 "
#7863790827027
b111010110 "
#7880560973331
b111010111 "
#7897331119635
b111011000 "
#7914101265939
b111011001 "
#7930871412243
b111011010 "
#7947641558547
b111011011 "
#7964411704851
b111011100 "
#7965510147517
b101110100000000000000000 !
#7965567029797
b1100000000000000000 !
#7965623537029
b100000000000000000 !
#7965678044005
b100000000000000100100000 !
#7966003460653
b101110110000000000000000 !
#7966024088293
b11100000000000000000 !
#7966073344597
b10100000000000000000 !
#7966127726557
b100000010000000100100000 !
#7966453018189
b101111000000000000000000 !
#7966473645829
b101100000000000000000 !
#7966519276669
b100100000000000000000 !
#7966577284093
b100000100000000100100000 !
#7966902700741
b101111010000000000000000 !
#7966970459413
b111100000000000000000 !
#7967026966645
b110100000000000000000 !
#7967081348605
b100000110000000100100000 !
#7967406640237
b101111100000000000000000 !
#7967474398909
b1001100000000000000000 !
#7967530906141
b1000100000000000000000 !
#7967585288101
b100001000000000100100000 !
#7967910579733
b101111110000000000000000 !
#7967978338405
b1011100000000000000000 !
#7968034845637
b1010100000000000000000 !
#7968089227597
b100001010000000100100000 !
#7968414769261
b110000000000000000000000 !
#7968435396901
b1101100000000000000000 !
#7968481027741
b1100100000000000000000 !
#7968539035165
b100001100000000100100000 !
#7968864576829
b110000010000000000000000 !
#7968932335501
b1111100000000000000000 !
#7968985217269
b1110100000000000000000 !
#7969056476389
b100001110000000100100000 !
#7969381893037
b110000100000000000000000 !
#7969435149853
b10001100000000000000000 !
#7969491657085
b10000100000000000000000 !
#7969546414093
b100010000000000100100000 !
#7969871955757
b110000110000000000000000 !
#7969892583397
b10011100000000000000000 !
#7969938214237
b10010100000000000000000 !
#7969996346677
b100010010000000100100000 !
#7970322388405
b110001000000000000000000 !
#7970386646629
b10101100000000000000000 !
#7970443153861
b10100100000000000000000 !
#7970501286301
b100010100000000100100000 !
#7973761828597
b100000000000000000 !
#7973807459437
b10000000000000000 !
#7973862716509
b1010110001010111010 !
#7973920598917
b1000001001110101110 !
#7973973980749
b11110001000000000011000 !
#7974411911797
b100000000000000000 !
#7974430414165
b100100110010011111111111 !
#7974481295677
b110110010000011111111111 !
#7974539428117
b101110100000000000000000 !
#7974594435157
b10000000000000000 !
#7974653192677
b111000000000000000 !
#7974978484309
b1100000010100111010 !
#7975084622893
b100011001011000000 !
#7975862722477
b10100000000000000000 !
#7975897476925
b10010000000000000000 !
#7975952859013
b11010110001010111010 !
#7976010616405
b11000001001110101110 !
#7976064123253
b1000000000011000 !
#7976501554237
b10100000000000000000 !
#7976519931589
b100100110010011111111111 !
#7976574563581
b110110010000011111111111 !
#7976632696021
b101110110000000000000000 !
#7976687703061
b10010000000000000000 !
#7976746335565
b10111000000000000000 !
#7977091004677
b11100000010100111010 !
#7977196893229
b10100010011000000000 !
#7978066254493
b100100000000000000000 !
#7978104759421
b100010000001111000000 !
#7978163641957
b101010100101111000001 !
#7978217773885
b101000011100111010110 !
#7978274656165
b10001000000000010101 !
#7978711837117
b100100000000000000000 !
#7978730089453
b100100110010011111111111 !
#7978788221893
b110110010000011111111111 !
#7978846354333
b101111000010000110001000 !
#7978901361373
b100010000001111000000 !
#7978959993877
b100111000000000000000 !
#7979284535413
b101100000010100111010 !
#7979371921597
b100100000001011010100 !
#7980241657909
b110100000000000000000 !
#7980269161429
b110010000001010000010 !
#7980328043965
b111010100110000101010 !
#7980382300909
b111000010111110011101 !
#7980439183189
b100001000000000010110 !
#7980819606877
b110100000000000000000 !
#7980841484677
b100100110010011111111111 !
#7980896116669
b110110010000011111111111 !
#7980954249109
b101111010010000110001000 !
#7981013131645
b110010000001010000010 !
#7981070639005
b110111000000000000000 !
#7981181851155
b111011101 "
#7981407807157
b111100000010100111010 !
#7981504819573
b110100000100000000000 !
#7982285294461
b1000100000000000000000 !
#7982334550765
b1000011000000111110100 !
#7982389807837
b1001011100101100001100 !
#7982447565229
b1001000011100010000101 !
#7982504447509
b110001000000000010101 !
#7982884871197
b1000100000000000000000 !
#7982910374461
b100100110010011111111111 !
#7982968506901
b110110010000011111111111 !
#7983026764357
b101111100000101001010000 !
#7983081771397
b1000011000000111110100 !
#7983140528917
b1000111000000000000000 !
#7983464195341
b1001100000010101010111 !
#7983557082229
b1000100000010000000000 !
#7984335556861
b1010100000000000000000 !
#7984363060381
b1010011000000100000000 !
#7984403815597
b1011011110011110001000 !
#7984461572989
b1011000100001101100001 !
#7984518455269
b1000001000000000011000 !
#7984899879085
b1010100000000000000000 !
#7984921756885
b100100110010011111111111 !
#7984979889325
b110110010000011111111111 !
#7985114531557
b101111110000101001010000 !
#7985151411277
b1010011000000100000000 !
#7985210043781
b1010111000000000000000 !
#7985535210397
b1011100000010101110110 !
#7985632222813
b1010100000110010110000 !
#7986410197381
b1100100000000000000000 !
#7986477581005
b1100010000000000000000 !
#7986536463541
b1101010111001101011101 !
#7986594345949
b1101000000000000001110 !
#7986651228229
b1010001000000000011010 !
#7987089534325
b1100100000000000000000 !
#7987111412125
b100100110010011111111111 !
#7987169544565
b110110010000011111111111 !
#7987227677005
b110000000000000000000000 !
#7987282809061
b1100010000000000000000 !
#7987341441565
b1100111000000000000000 !
#7987666358149
b1101100000110110000100 !
#7987767871141
b1100100001000111100000 !
#7988623355629
b10000100000000000000000 !
#7988669236501
b10000010000000000000000 !
#7988728119037
b10001010111010101011001 !
#7988785876429
b10001000101000101010001 !
#7988842758709
b1110001000000000010111 !
#7989336071845
b10000100000000000000000 !
#7989361950157
b100100110010011111111111 !
#7989420082597
b110110010000011111111111 !
#7989478215037
b110000100000000000000000 !
#7989536847541
b10000010000000000000000 !
#7989595480045
b10000111000000000000000 !
#7989920521645
b10001100000010101110110 !
#7990017534061
b10000100000110010110000 !
#7990795633645
b10010100000000000000000 !
#7990823137165
b10010010000000000000000 !
#7990874768773
b10011010111011111100010 !
#7990932901213
b10011000100001010111110 !
#7990989783493
b10000001000000000010010 !
#7991811263629
b10100100000000000000000 !
#7991864145397
b10100010000000000000000 !
#7991919402469
b10101010111011111100010 !
#7991977159861
b10101000100001010111110 !
#7992037667605
b10010001000000000010010 !
#7992359083741
b10100100000000000000000 !
#7992384587005
b100100110010011111111111 !
#7992442719445
b110110010000011111111111 !
#7992504477349
b110001000010000110001000 !
#7992563109853
b10100010000000000000000 !
#7992618116893
b10100111000000000000000 !
#7992941408269
b10101100000010000101001 !
#7993058548261
b10100100000111001000000 !
#7994315334109
b1100000010100111010 !
#7994421847741
b100011001011000000 !
#7994923286917
b11100000010100111010 !
#7995029050453
b10100010011000000000 !
#7995530614645
b101100000010100111010 !
#7995617750797
b100100000001011010100 !
#7996119815053
b111100000010100111010 !
#7996216702453
b110100000100000000000 !
#7996719016741
b1001100000010101010111 !
#7996810903501
b1000100000010000000000 !
#7997334095461
b1011100000010101110110 !
#7997430732829
b1010100000110010110000 !
#7997933422165
b1101100000110110000100 !
#7997951997459
b111011110 "
#7998035185189
b1100100001000111100000 !
#7998661140301
b10001100000010101110110 !
#7998758527765
b10000100000110010110000 !
#7999373856517
b10101100000010000011101 !
#7999470743917
b10100100000111001000000 !
#8005564398805
b1100000010001011111 !
#8005671287485
b100011001011000000 !
#8006182477909
b11100000010001011111 !
#8006288491477
b10100010011000000000 !
#8006799556885
b101100000010100011011 !
#8006886693037
b100100000001011010100 !
#8007398258509
b111100000010100100101 !
#8007495145909
b110100000100000000000 !
#8008005461221
b1001100000010101000010 !
#8008097222965
b1000100000010000000000 !
#8008608538405
b1011100000010101110110 !
#8008705675837
b1010100000110010110000 !
#8009236993837
b1101100000110110000100 !
#8009338506829
b1100100001000111100000 !
#8009970087661
b10001100000010101101011 !
#8010066975061
b10000100000110010110000 !
#8010647424349
b10101100000010000010001 !
#8010744061717
b10100100000111001000000 !
#8014722143763
b111011111 "
#8021524941493
b1100000010001011111 !
#8021631955189
b100011001011000000 !
#8022102515413
b11100000010001011111 !
#8022209529109
b10100010011000000000 !
#8022679964317
b101100000010100011011 !
#8022767600533
b100100000001011010100 !
#8023238160757
b111100000010100100101 !
#8023334798125
b110100000100000000000 !
#8023804858285
b1001100000010101000010 !
#8023896745045
b1000100000010000000000 !
#8024368180381
b1011100000010101110110 !
#8024465192797
b1010100000110010110000 !
#8024935002925
b1101100000110110000100 !
#8025057018541
b1100100001000111100000 !
#8025647844157
b10001100000010101101011 !
#8025744731557
b10000100000110010110000 !
#8026325805925
b10101100000010000000100 !
#8026422443293
b10100100000111001000000 !
#8031492290067
b111100000 "
#8037891036085
b101100000010100011011 !
#8037978422269
b100100000001011010100 !
#8038449732589
b111100000010100100101 !
#8038546369957
b110100000100000000000 !
#8039017305229
b1001100000010101000010 !
#8039109317005
b1000100000010000000000 !
#8039579252149
b1011100000010101110110 !
#8039676139549
b1010100000110010110000 !
#8040146574757
b1101100000110110000100 !
#8040248212765
b1100100001000111100000 !
#8040865041709
b10001100000010100011101 !
#8040961804093
b10000100000110010110000 !
#8041562756005
b10101100000001111111000 !
#8041659893437
b10100100000111001000000 !
#8048262436371
b111100001 "
#8053521786565
b1100000010000010100 !
#8053628175181
b100011001011000000 !
#8054090734381
b11100000010000010100 !
#8054196872965
b10100010011000000000 !
#8054667308173
b101100000010100011011 !
#8054754944389
b100100000001011010100 !
#8055225504613
b111100000010100100101 !
#8055322392013
b110100000100000000000 !
#8055792202141
b1001100000010101000010 !
#8055884213917
b1000100000010000000000 !
#8056354649125
b1011100000010101110110 !
#8056451661541
b1010100000110010110000 !
#8056922096749
b1101100000110110000100 !
#8057023859773
b1100100001000111100000 !
#8057628062101
b10001100000010011001111 !
#8057724699469
b10000100000110010110000 !
#8058305898853
b10101100000001111101100 !
#8058403036285
b10100100000111001000000 !
#8065032582675
b111100010 "
#8069524084597
b1100000001111001001 !
#8069630348197
b100011001011000000 !
#8070092032285
b11100000001111001001 !
#8070198420901
b10100010011000000000 !
#8070669106141
b101100000010100011011 !
#8070756242293
b100100000001011010100 !
#8071226552485
b111100000010100100101 !
#8071323314869
b110100000100000000000 !
#8071794125125
b1001100000010101000010 !
