cores/cps15/ver/game/wof_coin.vcd
$comment
TOOL:	simvision	15.20-s050
$end

$date
    Nov 16, 2020 12:13:32
$end

$timescale
    1ps
$end


$scope module mist_test $end

$scope module UUT $end

$scope module u_game $end

$scope module u_sound $end
$var wire 24 ! cpu2dsp [23:0] $end
$upscope $end

$upscope $end

$upscope $end

$upscope $end

$enddefinitions $end
#7782372406803
$dumpvars
b110110000000000000000001 !
$end
#7965507272149
b110110000000000000000000 !
#7965512522821
b101110100000000000000000 !
#7965576656029
b1100000000000000000 !
#7965633163261
b100000000000000000 !
#7965682294549
b100000000000100000 !
#7965684544837
b100000000100100000 !
#7965687545221
b100000000000000100100000 !
#7966007711197
b100000000000000100000000 !
#7966009961485
b100000000000000000000000 !
#7966012961869
b101110110000000000000000 !
#7966077095077
b11100000000000000000 !
#7966133602309
b10100000000000000000 !
#7966186359061
b10100000000000100000 !
#7966188609349
b10100000000100100000 !
#7966191609733
b100000010000000100100000 !
#7966511775709
b100000010000000100000000 !
#7966514025997
b100000010000000000000000 !
#7966517026381
b101111000000000000000000 !
#7966581159589
b101100000000000000000 !
#7966634041357
b100100000000000000000 !
#7966686798109
b100100000000000100000 !
#7966689048397
b100100000000100100000 !
#7966692048781
b100000100000000100100000 !
#7967012339773
b100000100000000100000000 !
#7967014590061
b100000100000000000000000 !
#7967017590445
b101111010000000000000000 !
#7967081723653
b111100000000000000000 !
#7967138230885
b110100000000000000000 !
#7967187362173
b110100000000000100000 !
#7967189612461
b110100000000100100000 !
#7967192612845
b100000110000000100100000 !
#7967512653805
b100000110000000100000000 !
#7967514904093
b100000110000000000000000 !
#7967517904477
b101111100000000000000000 !
#7967582037685
b1001100000000000000000 !
#7967638544917
b1000100000000000000000 !
#7967687801221
b1000100000000000100000 !
#7967690051509
b1000100000000100100000 !
#7967693051893
b100001000000000100100000 !
#7968013217869
b100001000000000100000000 !
#7968015468157
b100001000000000000000000 !
#7968018468541
b101111110000000000000000 !
#7968082601749
b1011100000000000000000 !
#7968139108981
b1010100000000000000000 !
#7968188240269
b1010100000000000100000 !
#7968190490557
b1010100000000100100000 !
#7968193490941
b100001010000000100100000 !
#7968513656917
b100001010000000100000000 !
#7968515907205
b100001010000000000000000 !
#7968518907589
b110000000000000000000000 !
#7968583040797
b1101100000000000000000 !
#7968639548029
b1100100000000000000000 !
#7968688679317
b1100100000000000100000 !
#7968690929605
b1100100000000100100000 !
#7968693929989
b100001100000000100100000 !
#7969014220981
b100001100000000100000000 !
#7969016471269
b100001100000000000000000 !
#7969019471653
b110000010000000000000000 !
#7969085730133
b1111100000000000000000 !
#7969142237365
b1110100000000000000000 !
#7969191368653
b1110100000000000100000 !
#7969193618941
b1110100000000100100000 !
#7969196619325
b100001110000000100100000 !
#7969516660285
b100001110000000100000000 !
#7969518910573
b100001110000000000000000 !
#7969521910957
b110000100000000000000000 !
#7969586044165
b10001100000000000000000 !
#7969642551397
b10000100000000000000000 !
#7969691682685
b10000100000000000100000 !
#7969694057989
b10000100000000100100000 !
#7969697058373
b100010000000000100100000 !
#7970017224349
b100010000000000100000000 !
#7970019474637
b100010000000000000000000 !
#7970022475021
b110000110000000000000000 !
#7970086608229
b10011100000000000000000 !
#7970143115461
b10010100000000000000000 !
#7970192246749
b10010100000000000100000 !
#7970194497037
b10010100000000100100000 !
#7970197497421
b100010010000000100100000 !
#7970517913429
b100010010000000100000000 !
#7970520163717
b100010010000000000000000 !
#7970523164101
b110001000000000000000000 !
#7970587422325
b10101100000000000000000 !
#7970643929557
b10100100000000000000000 !
#7970693060845
b10100100000000000100000 !
#7970695311133
b10100100000000100100000 !
#7970698311517
b100010100000000100100000 !
#7973754702685
b100010100000000100000000 !
#7973756952973
b100010100000000000000000 !
#7973759953357
b100000000000000000 !
#7973816460589
b10000000000000000 !
#7973866466989
b10000000010111010 !
#7973868717277
b10110001010111010 !
#7973871717661
b1010110001010111010 !
#7973924224381
b1010110001010101110 !
#7973926474669
b1010001001110101110 !
#7973929475053
b1000001001110101110 !
#7973977481197
b1000001001100011000 !
#7973979731485
b1001000000000011000 !
#7973982731869
b11110001000000000011000 !
#7974415287229
b11110001000000000000000 !
#7974417537517
b11110000000000000000000 !
#7974420537901
b100000000000000000 !
#7974480795613
b100000000011111111 !
#7974483045901
b100010011111111111 !
#7974486046285
b100100110010011111111111 !
#7974537552877
b100100110000011111111111 !
#7974540553261
b110110010000011111111111 !
#7974593435029
b110110010000011100000000 !
#7974595685317
b110110010000000000000000 !
#7974598685701
b101110100000000000000000 !
#7974653692741
b10000000000000000 !
#7974705699397
b11000000000000000 !
#7974708699781
b111000000000000000 !
#7975027490581
b111000000000111010 !
#7975029740869
b110000010100111010 !
#7975032741253
b1100000010100111010 !
#7975133504149
b1100000010111000000 !
#7975135754437
b1100011001011000000 !
#7975138754821
b100011001011000000 !
#7975911478717
b100011001000000000 !
#7975913729005
b100000000000000000 !
#7975916729389
b10100000000000000000 !
#7975944232909
b10010000000000000000 !
#7975983362917
b10010000000010111010 !
#7975985613205
b10010110001010111010 !
#7975988613589
b11010110001010111010 !
#7976037494845
b11010110001010101110 !
#7976039745133
b11010001001110101110 !
#7976042745517
b11000001001110101110 !
#7976094377125
b11000001001100011000 !
#7976096627413
b11001000000000011000 !
#7976099627797
b1000000000011000 !
#7976531558077
b1000000000000000 !
#7976533808365
b0 !
#7976536808749
b10100000000000000000 !
#7976597066461
b10100000000011111111 !
#7976599316749
b10100010011111111111 !
#7976602317133
b100100110010011111111111 !
#7976653948741
b100100110000011111111111 !
#7976656949125
b110110010000011111111111 !
#7976706330445
b110110010000011100000000 !
#7976708580733
b110110010000000000000000 !
#7976711581117
b101110110000000000000000 !
#7976766588157
b10010000000000000000 !
#7976822220277
b10011000000000000000 !
#7976825220661
b10111000000000000000 !
#7977164389069
b10111000000000111010 !
#7977166639357
b10110000010100111010 !
#7977169639741
b11100000010100111010 !
#7977270277621
b11100000010100000000 !
#7977272527909
b11100010011000000000 !
#7977275528293
b10100010011000000000 !
#7978141764157
b10100000000000000000 !
#7978144764541
b100100000000000000000 !
#7978167017389
b100100000000011000000 !
#7978169267677
b100100000001111000000 !
#7978172268061
b100010000001111000000 !
#7978211398069
b100010000001111000001 !
#7978213648357
b100010100101111000001 !
#7978216648741
b101010100101111000001 !
#7978265529997
b101010100101111010110 !
#7978267780285
b101010011100111010110 !
#7978270780669
b101000011100111010110 !
#7978322412277
b101000011100100010101 !
#7978324662565
b101001000000000010101 !
#7978327662949
b10001000000000010101 !
#7978759593229
b10001000000000000000 !
#7978761843517
b10000000000000000000 !
#7978764843901
b100100000000000000000 !
#7978821476149
b100100000000011111111 !
#7978823726437
b100100010011111111111 !
#7978826726821
b100100110010011111111111 !
#7978881858877
b100100110000011111111111 !
#7978884859261
b110110010000011111111111 !
#7978934115565
b110110010000011110001000 !
#7978936365853
b110110010010000110001000 !
#7978939366237
b101111000010000110001000 !
#7978989122605
b101111000010000111000000 !
#7978991372893
b101111000000001111000000 !
#7978994373277
b100010000001111000000 !
#7979044129645
b100010000001100000000 !
#7979046379933
b100011000000000000000 !
#7979049380317
b100111000000000000000 !
#7979368671181
b100111000000000111010 !
#7979370921469
b100110000010100111010 !
#7979373921853
b101100000010100111010 !
#7979455807333
b101100000010111010100 !
#7979458057621
b101100000001011010100 !
#7979461058005
b100100000001011010100 !
#7980325543645
b100100000001000000000 !
#7980327793933
b100100000000000000000 !
#7980330794317
b110100000000000000000 !
#7980382050877
b110100000000010000010 !
#7980384301165
b110100000001010000010 !
#7980387301549
b110010000001010000010 !
#7980437307949
b110010000001000101010 !
#7980439558237
b110010100110000101010 !
#7980442558621
b111010100110000101010 !
#7980491439877
b111010100110010011101 !
#7980493690165
b111010010111110011101 !
#7980496690549
b111000010111110011101 !
#7980548572189
b111000010111100010110 !
#7980550822477
b111001000000000010110 !
#7980553822861
b100001000000000010110 !
#7980928995877
b100001000000000000000 !
#7980931246165
b100000000000000000000 !
#7980934246549
b110100000000000000000 !
#7980994379245
b110100000000011111111 !
#7980996629533
b110100010011111111111 !
#7980999629917
b100100110010011111111111 !
#7981057137277
b100100110000011111111111 !
#7981060137661
b110110010000011111111111 !
#7981106018533
b110110010000011110001000 !
#7981108268821
b110110010010000110001000 !
#7981111269205
b101111010010000110001000 !
#7981161025573
b101111010010000110000010 !
#7981163275861
b101111010000001010000010 !
#7981166276245
b110010000001010000010 !
#7981216032613
b110010000001000000000 !
#7981218282901
b110011000000000000000 !
#7981221283285
b110111000000000000000 !
#7981552575685
b110111000000000111010 !
#7981554825973
b110110000010100111010 !
#7981557826357
b111100000010100111010 !
#7981649838133
b111100000010100000000 !
#7981652088421
b111100000100000000000 !
#7981655088805
b110100000100000000000 !
#7982431313149
b110100000000000000000 !
#7982434313533
b1000100000000000000000 !
#7982456691397
b1000100000000011110100 !
#7982458941685
b1000101000000111110100 !
#7982461942069
b1000011000000111110100 !
#7982497446613
b1000011000000100001100 !
#7982499696901
b1000011100101100001100 !
#7982502697285
b1001011100101100001100 !
#7982551578541
b1001011100101110000101 !
#7982553828829
b1001010011100010000101 !
#7982556829213
b1001000011100010000101 !
#7982608460821
b1001000011100000010101 !
#7982610711109
b1001001000000000010101 !
#7982613711493
b110001000000000010101 !
#7982989134541
b110001000000000000000 !
#7982991384829
b110000000000000000000 !
#7982994385213
b1000100000000000000000 !
#7983054517909
b1000100000000011111111 !
#7983056768197
b1000100010011111111111 !
#7983059768581
b100100110010011111111111 !
#7983111275173
b100100110000011111111111 !
#7983114275557
b110110010000011111111111 !
#7983167157325
b110110010000011101010000 !
#7983169407613
b110110010000101001010000 !
#7983172407997
b101111100000101001010000 !
#7983222164365
b101111100000101011110100 !
#7983224414653
b101111101000000111110100 !
#7983227415037
b1000011000000111110100 !
#7983277171405
b1000011000000100000000 !
#7983279421693
b1000011000000000000000 !
#7983282422077
b1000111000000000000000 !
#7983601087861
b1000111000000001010111 !
#7983603338149
b1000110000010101010111 !
#7983606338533
b1001100000010101010111 !
#7983692974621
b1001100000010100000000 !
#7983695224909
b1001100000010000000000 !
#7983698225293
b1000100000010000000000 !
#7984471949317
b1000100000000000000000 !
#7984474949701
b1010100000000000000000 !
#7984503078301
b1010101000000100000000 !
#7984506078685
b1010011000000100000000 !
#7984556085085
b1010011000000110001000 !
#7984558335373
b1010011110011110001000 !
#7984561335757
b1011011110011110001000 !
#7984613842477
b1011011110011101100001 !
#7984616092765
b1011010100001101100001 !
#7984619093149
b1011000100001101100001 !
#7984667099293
b1011000100001100011000 !
#7984669474597
b1011001000000000011000 !
#7984672474981
b1000001000000000011000 !
#7985123782741
b1000001000000000000000 !
#7985126033029
b1000000000000000000000 !
#7985129033413
b1010100000000000000000 !
#7985171038789
b1010100000000011111111 !
#7985173289077
b1010100010011111111111 !
#7985176289461
b100100110010011111111111 !
#7985227921069
b100100110000011111111111 !
#7985230921453
b110110010000011111111111 !
#7985280177757
b110110010000011101010000 !
#7985282428045
b110110010000101001010000 !
#7985285428429
b101111110000101001010000 !
#7985335184797
b101111110000101000000000 !
#7985337435085
b101111111000000100000000 !
#7985340435469
b1010011000000100000000 !
#7985396067589
b1010011000000000000000 !
#7985399067973
b1010111000000000000000 !
#7985718608869
b1010111000000001110110 !
#7985720859157
b1010110000010101110110 !
#7985723859541
b1011100000010101110110 !
#7985815121221
b1011100000010110110000 !
#7985817371509
b1011100000110010110000 !
#7985820371893
b1010100000110010110000 !
#7986592970773
b1010100000110000000000 !
#7986595221061
b1010100000000000000000 !
#7986598221445
b1100100000000000000000 !
#7986625724965
b1100010000000000000000 !
#7986672105901
b1100010000000001011101 !
#7986674356189
b1100010111001101011101 !
#7986677356573
b1101010111001101011101 !
#7986729863293
b1101010111001100001110 !
#7986732113581
b1101010000000000001110 !
#7986735113965
b1101000000000000001110 !
#7986783120109
b1101000000000000011010 !
#7986785370397
b1101001000000000011010 !
#7986788370781
b1010001000000000011010 !
#7987220301061
b1010001000000000000000 !
#7987222551349
b1010000000000000000000 !
#7987225551733
b1100100000000000000000 !
#7987285684429
b1100100000000011111111 !
#7987287934717
b1100100010011111111111 !
#7987290935101
b100100110010011111111111 !
#7987342441693
b100100110000011111111111 !
#7987345442077
b110110010000011111111111 !
#7987398323845
b110110010000011100000000 !
#7987400574133
b110110010000000000000000 !
#7987403574517
b110000000000000000000000 !
#7987458706573
b1100010000000000000000 !
#7987510713229
b1100011000000000000000 !
#7987513713613
b1100111000000000000000 !
#7987833254509
b1100111000000010000100 !
#7987835504797
b1100110000110110000100 !
#7987838505181
b1101100000110110000100 !
#7987934517469
b1101100000110111100000 !
#7987936892773
b1101100001000111100000 !
#7987939893157
b1100100001000111100000 !
#7988790251989
b1100100001000100000000 !
#7988792502277
b1100100000000000000000 !
#7988795502661
b10000100000000000000000 !
#7988848384429
b10000010000000000000000 !
#7988898390829
b10000010000000001011001 !
#7988900641117
b10000010111010101011001 !
#7988903641501
b10001010111010101011001 !
#7988956148221
b10001010111010101010001 !
#7988958398509
b10001010101000101010001 !
#7988961398893
b10001000101000101010001 !
#7989009405037
b10001000101000100010111 !
#7989011655325
b10001001000000000010111 !
#7989014655709
b1110001000000000010111 !
#7989502343125
b1110001000000000000000 !
#7989504593413
b1110000000000000000000 !
#7989507593797
b10000100000000000000000 !
#7989567726493
b10000100000000011111111 !
#7989569976781
b10000100010011111111111 !
#7989572977165
b100100110010011111111111 !
#7989624483757
b100100110000011111111111 !
#7989627484141
b110110010000011111111111 !
#7989680490925
b110110010000011100000000 !
#7989682741213
b110110010000000000000000 !
#7989685741597
b110000100000000000000000 !
#7989740748637
b10000010000000000000000 !
#7989792755293
b10000011000000000000000 !
#7989795755677
b10000111000000000000000 !
#7990115296573
b10000111000000001110110 !
#7990117546861
b10000110000010101110110 !
#7990120547245
b10001100000010101110110 !
#7990211933941
b10001100000010110110000 !
#7990214184229
b10001100000110010110000 !
#7990217184613
b10000100000110010110000 !
#7990988783365
b10000100000110000000000 !
#7990991033653
b10000100000000000000000 !
#7990994034037
b10010100000000000000000 !
#7991021537557
b10010010000000000000000 !
#7991071668973
b10010010000000011100010 !
#7991073919261
b10010010111011111100010 !
#7991076919645
b10011010111011111100010 !
#7991125800901
b10011010111011110111110 !
#7991128051189
b10011010100001010111110 !
#7991131051573
b10011000100001010111110 !
#7991182933213
b10011000100001000010010 !
#7991185183501
b10011001000000000010010 !
#7991188183885
b10000001000000000010010 !
#7992004038301
b10000001000000000000000 !
#7992006288589
b10000000000000000000000 !
#7992009288973
b10100100000000000000000 !
#7992037167541
b10100010000000000000000 !
#7992072672085
b10100010000000011100010 !
#7992074922373
b10100010111011111100010 !
#7992077922757
b10101010111011111100010 !
#7992130554493
b10101010111011110111110 !
#7992132804781
b10101010100001010111110 !
#7992135805165
b10101000100001010111110 !
#7992183811309
b10101000100001000010010 !
#7992186061597
b10101001000000000010010 !
#7992189061981
b10010001000000000010010 !
#7992504852397
b10010001000000000000000 !
#7992507102685
b10010000000000000000000 !
#7992510103069
b10100100000000000000000 !
#7992523104733
b10100100000000011111111 !
#7992525355021
b10100100010011111111111 !
#7992528355405
b100100110010011111111111 !
#7992576361549
b100100110000011111111111 !
#7992579361933
b110110010000011111111111 !
#7992628618237
b110110010000011110001000 !
#7992630868525
b110110010010000110001000 !
#7992633868909
b110001000010000110001000 !
#7992687250741
b110001000010000100000000 !
#7992689501029
b110001000000000000000000 !
#7992692501413
b10100010000000000000000 !
#7992744508069
b10100011000000000000000 !
#7992747508453
b10100111000000000000000 !
#7993085301685
b10100111000000000101001 !
#7993087551973
b10100110000010000101001 !
#7993090552357
b10101100000010000101001 !
#7993181939053
b10101100000010001000000 !
#7993184189341
b10101100000111001000000 !
#7993187189725
b10100100000111001000000 !
#7994438224837
b10100100000111000111010 !
#7994440475125
b10100100000010100111010 !
#7994443475509
b1100000010100111010 !
#7994544238405
b1100000010111000000 !
#7994546488693
b1100011001011000000 !
#7994549489077
b100011001011000000 !
#7995045677581
b100011001000111010 !
#7995047927869
b100000010100111010 !
#7995050928253
b11100000010100111010 !
#7995151566133
b11100000010100000000 !
#7995153816421
b11100010011000000000 !
#7995156816805
b10100010011000000000 !
#7995653505373
b10100010011000111010 !
#7995655755661
b10100000010100111010 !
#7995658756045
b101100000010100111010 !
#7995740891557
b101100000010111010100 !
#7995743141845
b101100000001011010100 !
#7995746142229
b100100000001011010100 !
#7996242330733
b100100000001000111010 !
#7996244581021
b100100000010100111010 !
#7996247581405
b111100000010100111010 !
#7996338843085
b111100000010100000000 !
#7996341093373
b111100000100000000000 !
#7996344093757
b110100000100000000000 !
#7996839657181
b110100000100001010111 !
#7996841907469
b110100000010101010111 !
#7996844907853
b1001100000010101010111 !
#7996931543941
b1001100000010100000000 !
#7996933794229
b1001100000010000000000 !
#7996936794613
b1000100000010000000000 !
#7997453735773
b1000100000010001110110 !
#7997455986061
b1000100000010101110110 !
#7997458986445
b1011100000010101110110 !
#7997550248125
b1011100000010110110000 !
#7997552498413
b1011100000110010110000 !
#7997555498797
b1010100000110010110000 !
#7998052187365
b1010100000110010000100 !
#7998054437653
b1010100000110110000100 !
#7998057438037
b1101100000110110000100 !
#7998154450453
b1101100000110111100000 !
#7998156700741
b1101100001000111100000 !
#7998159701125
b1100100001000111100000 !
#7998779780485
b1100100001000101110110 !
#7998782030773
b1100100000010101110110 !
#7998785031157
b10001100000010101110110 !
#7998876667885
b10001100000010110110000 !
#7998878918173
b10001100000110010110000 !
#7998881918557
b10000100000110010110000 !
#7999491496573
b10000100000110000011101 !
#7999493746861
b10000100000010000011101 !
#7999496747245
b10101100000010000011101 !
#7999588133941
b10101100000010001000000 !
#7999590384229
b10101100000111001000000 !
#7999593384613
b10100100000111001000000 !
#8005558398037
b10100100000111001011111 !
#8005560648325
b10100100000010001011111 !
#8005563648709
b1100000010001011111 !
#8005664786653
b1100000010011000000 !
#8005667036941
b1100011001011000000 !
#8005670037325
b100011001011000000 !
#8006175852061
b100011001001011111 !
#8006178102349
b100000010001011111 !
#8006181102733
b11100000010001011111 !
#8006281990645
b11100000010000000000 !
#8006284240933
b11100010011000000000 !
#8006287241317
b10100010011000000000 !
#8006792430973
b10100010011000011011 !
#8006794681261
b10100000010100011011 !
#8006797681645
b101100000010100011011 !
#8006879567125
b101100000010111010100 !
#8006881817413
b101100000001011010100 !
#8006884817797
b100100000001011010100 !
#8007389757421
b100100000001000100101 !
#8007392007709
b100100000010100100101 !
#8007395008093
b111100000010100100101 !
#8007486394789
b111100000010100000000 !
#8007488645077
b111100000100000000000 !
#8007491645461
b110100000100000000000 !
#8007996460069
b110100000100001000010 !
#8007998710357
b110100000010101000010 !
#8008001710741
b1001100000010101000010 !
#8008088471845
b1001100000010100000000 !
#8008090722133
b1001100000010000000000 !
#8008093722517
b1000100000010000000000 !
#8008598787157
b1000100000010001110110 !
#8008601037445
b1000100000010101110110 !
#8008604162845
b1011100000010101110110 !
#8008695549541
b1011100000010110110000 !
#8008697799829
b1011100000110010110000 !
#8008700800213
b1010100000110010110000 !
#8009226242461
b1010100000110010000100 !
#8009228492749
b1010100000110110000100 !
#8009231493133
b1101100000110110000100 !
#8009327505421
b1101100000110111100000 !
#8009329755709
b1101100001000111100000 !
#8009332756093
b1100100001000111100000 !
#8009958461173
b1100100001000101101011 !
#8009960711461
b1100100000010101101011 !
#8009963711845
b10001100000010101101011 !
#8010055098541
b10001100000010110110000 !
#8010057348829
b10001100000110010110000 !
#8010060349213
b10000100000110010110000 !
#8010634797733
b10000100000110000010001 !
#8010637048021
b10000100000010000010001 !
#8010640048405
b10101100000010000010001 !
#8010731310085
b10101100000010001000000 !
#8010733560373
b10101100000111001000000 !
#8010736560757
b10100100000111001000000 !
#8021520565933
b10100100000111001011111 !
#8021522816221
b10100100000010001011111 !
#8021525816605
b1100000010001011111 !
#8021626954549
b1100000010011000000 !
#8021629204837
b1100011001011000000 !
#8021632205221
b100011001011000000 !
#8022096889693
b100011001001011111 !
#8022099139981
b100000010001011111 !
#8022102140365
b11100000010001011111 !
#8022202903261
b11100000010000000000 !
#8022205153549
b11100010011000000000 !
#8022208153933
b10100010011000000000 !
#8022672338341
b10100010011000011011 !
#8022674588629
b10100000010100011011 !
#8022677589013
b101100000010100011011 !
#8022759724525
b101100000010111010100 !
#8022761974813
b101100000001011010100 !
#8022764975197
b100100000001011010100 !
#8023229784685
b100100000001000100101 !
#8023232034973
b100100000010100100101 !
#8023235035357
b111100000010100100101 !
#8023326547069
b111100000010100000000 !
#8023328797357
b111100000100000000000 !
#8023331922757
b110100000100000000000 !
#8023795607101
b110100000100001000010 !
#8023797857389
b110100000010101000010 !
#8023800857773
b1001100000010101000010 !
#8023887368845
b1001100000010100000000 !
#8023889619133
b1001100000010000000000 !
#8023892619517
b1000100000010000000000 !
#8024357429005
b1000100000010001110110 !
#8024359679293
b1000100000010101110110 !
#8024362679677
b1011100000010101110110 !
#8024454066373
b1011100000010110110000 !
#8024456316661
b1011100000110010110000 !
#8024459317045
b1010100000110010110000 !
#8024923376437
b1010100000110010000100 !
#8024925626725
b1010100000110110000100 !
#8024928627109
b1101100000110110000100 !
#8025024889429
b1101100000110111100000 !
#8025027139717
b1101100001000111100000 !
#8025030140101
b1100100001000111100000 !
#8025635592589
b1100100001000101101011 !
#8025637842877
b1100100000010101101011 !
#8025640843261
b10001100000010101101011 !
#8025732229957
b10001100000010110110000 !
#8025734480245
b10001100000110010110000 !
#8025737480629
b10000100000110010110000 !
#8026312429213
b10000100000110000000100 !
#8026314679501
b10000100000010000000100 !
#8026317679885
b10101100000010000000100 !
#8026408941565
b10101100000010001000000 !
#8026411191853
b10101100000111001000000 !
#8026414192237
b10100100000111001000000 !
#8037884660269
b10100100000111000011011 !
#8037886910557
b10100100000010100011011 !
#8037889910941
b101100000010100011011 !
#8037971921437
b101100000010111010100 !
#8037974171725
b101100000001011010100 !
#8037977172109
b100100000001011010100 !
#8038441856581
b100100000001000100101 !
#8038444106869
b100100000010100100101 !
#8038447107253
b111100000010100100101 !
#8038538368933
b111100000010100000000 !
#8038540619221
b111100000100000000000 !
#8038543619605
b110100000100000000000 !
#8039007303949
b110100000100001000010 !
#8039009554237
b110100000010101000010 !
#8039012554621
b1001100000010101000010 !
#8039099065693
b1001100000010100000000 !
#8039101315981
b1001100000010000000000 !
#8039104316365
b1000100000010000000000 !
#8039568875821
b1000100000010001110110 !
#8039571126109
b1000100000010101110110 !
#8039574126493
b1011100000010101110110 !
#8039665638205
b1011100000010110110000 !
#8039667888493
b1011100000110010110000 !
#8039670888877
b1010100000110010110000 !
#8040135198301
b1010100000110010000100 !
#8040137448589
b1010100000110110000100 !
#8040140448973
b1101100000110110000100 !
#8040236461261
b1101100000110111100000 !
#8040238711549
b1101100001000111100000 !
#8040241711933
b1100100001000111100000 !
#8040852665125
b1100100001000100011101 !
#8040854915413
b1100100000010100011101 !
#8040857915797
b10001100000010100011101 !
#8040949427509
b10001100000010110110000 !
#8040951677797
b10001100000110010110000 !
#8040954678181
b10000100000110010110000 !
#8041550254405
b10000100000110011111000 !
#8041552504693
b10000100000001111111000 !
#8041555505077
b10101100000001111111000 !
#8041647141805
b10101100000001101000000 !
#8041649392093
b10101100000111001000000 !
#8041652392477
b10100100000111001000000 !
#8053514410621
b10100100000111000010100 !
#8053516660909
b10100100000010000010100 !
#8053519661293
b1100000010000010100 !
#8053620799237
b1100000010011000000 !
#8053623049525
b1100011001011000000 !
#8053626049909
b100011001011000000 !
#8054082108277
b100011001000010100 !
#8054084358565
b100000010000010100 !
#8054087358949
b11100000010000010100 !
#8054188246861
b11100000010000000000 !
#8054190497149
b11100010011000000000 !
#8054193497533
b10100010011000000000 !
#8054657806957
b10100010011000011011 !
#8054660057245
b10100000010100011011 !
#8054663057629
b101100000010100011011 !
#8054745068125
b101100000010111010100 !
#8054747318413
b101100000001011010100 !
#8054750318797
b100100000001011010100 !
#8055215003269
b100100000001000100101 !
#8055217253557
b100100000010100100101 !
#8055220253941
b111100000010100100101 !
#8055311640637
b111100000010100000000 !
#8055313890925
b111100000100000000000 !
#8055316891309
b110100000100000000000 !
#8055780575653
b110100000100001000010 !
#8055782825941
b110100000010101000010 !
#8055785826325
b1001100000010101000010 !
#8055872337397
b1001100000010100000000 !
#8055874587685
b1001100000010000000000 !
#8055877588069
b1000100000010000000000 !
#8056341522445
b1000100000010001110110 !
#8056343772733
b1000100000010101110110 !
#8056346773117
b1011100000010101110110 !
#8056438159813
b1011100000010110110000 !
#8056440410101
b1011100000110010110000 !
#8056443410485
b1010100000110010110000 !
#8056907719909
b1010100000110010000100 !
#8056909970197
b1010100000110110000100 !
#8056912970581
b1101100000110110000100 !
#8057009232901
b1101100000110111100000 !
#8057011483189
b1101100001000111100000 !
#8057014483573
b1100100001000111100000 !
#8057611559989
b1100100001000111001111 !
#8057613810277
b1100100000010011001111 !
#8057616810661
b10001100000010011001111 !
#8057708447389
b10001100000010010110000 !
#8057710697677
b10001100000110010110000 !
#8057713698061
b10000100000110010110000 !
#8058288896677
b10000100000110011101100 !
#8058291146965
b10000100000001111101100 !
#8058294147349
b10101100000001111101100 !
#8058385534045
b10101100000001101000000 !
#8058387784333
b10101100000111001000000 !
#8058390784717
b10100100000111001000000 !
#8069517833797
b10100100000111011001001 !
#8069520084085
b10100100000001111001001 !
#8069523084469
b1100000001111001001 !
#8069624222413
b1100000001111000000 !
#8069626472701
b1100011001011000000 !
#8069629473085
b100011001011000000 !
#8070085531453
b100011001011001001 !
#8070087781741
b100000001111001001 !
#8070090782125
b11100000001111001001 !
#8070191420005
b11100000001100000000 !
#8070193670293
b11100010011000000000 !
#8070196670677
b10100010011000000000 !
#8070661230133
b10100010011000011011 !
#8070663480421
b10100000010100011011 !
#8070666480805
b101100000010100011011 !
#8070748491301
b101100000010111010100 !
#8070750741589
b101100000001011010100 !
#8070753741973
b100100000001011010100 !
#8071218051397
b100100000001000100101 !
#8071220301685
b100100000010100100101 !
#8071223302069
b111100000010100100101 !
#8071314688765
b111100000010100000000 !
#8071316939053
b111100000100000000000 !
#8071319939437
b110100000100000000000 !
#8071783873813
b110100000100001000010 !
#8071786124101
b110100000010101000010 !
#8071789249501
b1001100000010101000010 !
#8071876010605
b1001100000010100000000 !
#8071878260893
b1001100000010000000000 !
#8071881261277
b1000100000010000000000 !
#8072345445685
b1000100000010001110110 !
#8072347695973
b1000100000010101110110 !
#8072350696357
b1011100000010101110110 !
#8072442083053
b1011100000010110110000 !
#8072444333341
b1011100000110010110000 !
#8072447333725
b1010100000110010110000 !
#8072911768165
b1010100000110010000100 !
#8072914018453
b1010100000110110000100 !
#8072917018837
b1101100000110110000100 !
#8073013156141
b1101100000110111100000 !
#8073015406429
b1101100001000111100000 !
#8073018406813
b1100100001000111100000 !
#8073615358213
b1100100001000110000001 !
#8073617608501
b1100100000010010000001 !
#8073620608885
b10001100000010010000001 !
#8073712245613
b10001100000010010110000 !
#8073714495901
b10001100000110010110000 !
#8073717496285
b10000100000110010110000 !
#8074292069821
b10000100000110011011111 !
#8074294320109
b10000100000001111011111 !
#8074297320493
b10101100000001111011111 !
#8074388832205
b10101100000001101000000 !
#8074391082493
b10101100000111001000000 !
#8074394082877
b10100100000111001000000 !
#8085522507133
b10100100000111001111111 !
#8085524757421
b10100100000001101111111 !
#8085527757805
b1100000001101111111 !
#8085628895749
b1100000001111000000 !
#8085631146037
b1100011001011000000 !
#8085634146421
b100011001011000000 !
#8086089704725
b100011001001111111 !
#8086091955013
b100000001101111111 !
#8086094955397
b11100000001101111111 !
#8086195968325
b11100000001100000000 !
#8086198218613
b11100010011000000000 !
#8086201218997
b10100010011000000000 !
#8086691906797
b10100010011011010000 !
#8086694157085
b10100000010011010000 !
#8086697157469
b101100000010011010000 !
#8086779167965
b101100000010011010100 !
#8086781418253
b101100000001011010100 !
#8086784418637
b100100000001011010100 !
#8087274356341
b100100000001011011011 !
#8087276606629
b100100000010011011011 !
#8087279607013
b111100000010011011011 !
#8087371118725
b111100000010000000000 !
#8087373369013
b111100000100000000000 !
#8087376369397
b110100000100000000000 !
#8087865431989
b110100000100000000010 !
#8087867682277
b110100000010100000010 !
#8087870682661
b1001100000010100000010 !
#8087957568781
b1001100000010100000000 !
#8087959819069
b1001100000010000000000 !
#8087962819453
b1000100000010000000000 !
#8088452132077
b1000100000010000110101 !
#8088454382365
b1000100000010100110101 !
#8088457382749
b1011100000010100110101 !
#8088548894461
b1011100000010110110000 !
#8088551144749
b1011100000110010110000 !
#8088554145133
b1010100000110010110000 !
#8089017954493
b1010100000110010000100 !
#8089020204781
b1010100000110110000100 !
#8089023205165
b1101100000110110000100 !
#8089139845093
b1101100000110111100000 !
#8089142095381
b1101100001000111100000 !
#8089145095765
b1100100001000111100000 !
#8089721169493
b1100100001000100110011 !
#8089723419781
b1100100000010000110011 !
#8089726420165
b10001100000010000110011 !
#8089817806861
b10001100000010010110000 !
#8089820057149
b10001100000110010110000 !
#8089823057533
b10000100000110010110000 !
#8090397631069
b10000100000110011010011 !
#8090399881357
b10000100000001111010011 !
#8090402881741
b10101100000001111010011 !
#8090494393453
b10101100000001101000000 !
#8090496643741
b10101100000111001000000 !
#8090499644125
b10100100000111001000000 !
#8101328530045
b10100100000111000000000 !
#8101330780333
b10100100000000000000000 !
#8101333780717
b100000000000000000 !
#8101354033309
b100000000011111111 !
#8101356283597
b100010011111111111 !
#8101359283981
b100100110010011111111111 !
#8101414416037
b100100110000011111111111 !
#8101417416421
b110110010000011111111111 !
#8101466672725
b110110010000011100000000 !
#8101468923013
b110110010000000000000000 !
#8101471923397
b101110100000000000000000 !
#8101527055453
b10000000000000000 !
#8101579062109
b11000000000000000 !
#8101582062493
b111000000000000000 !
#8101901728405
b111000000000111010 !
#8101903978693
b110000010100111010 !
