cores/cps15/ver/game/wof_coin.vcd
$comment
TOOL:	simvision	15.20-s050
$end

$date
    Nov 15, 2020 08:22:25
$end

$timescale
    1ps
$end


$scope module mist_test $end

$scope module UUT $end

$scope module u_game $end

$scope module u_sound $end
$var wire 24 ! cpu2dsp [23:0] $end
$var wire 1 " dsp_irq $end
$var wire 1 # dsp_rst $end
$upscope $end

$upscope $end

$upscope $end

$upscope $end

$enddefinitions $end
#0
$dumpvars
b0 !
0"
1#
$end
#10886711029
0#
#20032506541
1#
#36040055245
0#
#1321117149061
1"
b110111100000000000000000 !
#1321117399093
0"
#1321130150725
b110111100010111000000000 !
#1321135401397
b110111110010111000000000 !
1"
#1321135693101
0"
#1321148403061
b110111110000000000000000 !
#1321153653733
b111000000000000000000000 !
1"
#1321153820421
0"
#1321166655397
b111000000011000000000000 !
#1321171906069
b111000010011000000000000 !
1"
#1321173072885
0"
#1321184907733
b111000011111111100000000 !
#1321187158021
b111000011111111100111111 !
#1321190158405
b111001001111111100111111 !
1"
#1321190491781
0"
#1321208410741
1"
b111001011111111100111111 !
#1321208577429
0"
#1321226788093
1"
b111001101111111100111111 !
#1321227538189
0"
#1321245040429
1"
b111001111111111100111111 !
#1321246165573
0"
#1321260292381
b111001111111111111111111 !
#1321263292765
b111000101111111111111111 !
1"
#1321264251221
0"
#1321276294429
b111000101011001011111111 !
#1321278669733
b111000101011001000001101 !
#1321281670117
b110110101011001000001101 !
1"
#1321283211981
0"
#1321294671781
b110110100001000100001101 !
#1321296922069
b110110100001000100001110 !
#1321299922453
b110111000001000100001110 !
1"
#1321301839365
0"
#1321312924117
b110111000011100100001110 !
#1321315174405
b110111000011100100000000 !
#1321318174789
b111000110011100100000000 !
1"
#1321319591637
0"
#1321339677541
b111000110000000000000000 !
#1321344928213
b101110100000000000000000 !
1"
#1321345136573
0"
#1321365555853
1"
b1100000000000000000 !
#1321372973469
0"
#1321382182981
1"
b100000000000000000 !
#1321382891405
0"
#1321406811133
1"
b101110110000000000000000 !
#1321413186949
0"
#1321427438773
1"
b11100000000000000000 !
#1321428647261
0"
#1321444065901
1"
b10100000000000000000 !
#1321444399277
0"
#1321468694053
1"
b101111000000000000000000 !
#1321468860741
0"
#1321489321693
1"
b101100000000000000000 !
#1321490405165
0"
#1321505948821
1"
b100100000000000000000 !
#1321507115637
0"
#1321530576973
1"
b101111010000000000000000 !
#1321530701989
0"
#1321551204613
1"
b111100000000000000000 !
#1321551579661
0"
#1321567831741
1"
b110100000000000000000 !
#1321568165117
0"
#1321592459893
1"
b101111100000000000000000 !
#1321595668637
0"
#1321613212549
1"
b1001100000000000000000 !
#1321613920973
0"
#1321629839677
1"
b1000100000000000000000 !
#1321635882117
0"
#1321654467829
1"
b101111110000000000000000 !
#1321655301269
0"
#1321675095469
1"
b1011100000000000000000 !
#1321676137269
0"
#1321691722597
1"
b1010100000000000000000 !
#1321692180989
0"
#1321716350749
1"
b110000000000000000000000 !
#1321716934157
0"
#1321736978389
1"
b1101100000000000000000 !
#1321737186749
0"
#1321753605517
1"
b1100100000000000000000 !
#1321754147253
0"
#1321778233669
1"
b110000010000000000000000 !
#1321778442029
0"
#1321798861309
1"
b1111100000000000000000 !
#1321802903493
0"
#1321815488437
1"
b1110100000000000000000 !
#1321818363805
0"
#1321840116589
1"
b110000100000000000000000 !
#1321841158389
0"
#1321860744229
1"
b10001100000000000000000 !
#1321860994261
0"
#1321877621389
1"
b10000100000000000000000 !
#1321880121709
0"
#1321902249541
1"
b110000110000000000000000 !
#1321902541245
0"
#1321922877181
1"
b10011100000000000000000 !
#1321929711389
0"
#1321939504309
1"
b10010100000000000000000 !
#1321939629325
0"
#1321964132461
1"
b110001000000000000000000 !
#1321969924869
0"
#1321984760101
1"
b10101100000000000000000 !
#1321985385181
0"
#1322001637261
1"
b10100100000000000000000 !
#1322001970637
0"
#1322026265413
1"
b110001010000000000000000 !
#1322026473773
0"
#1322046893053
1"
b10111100000000000000000 !
#1322047143085
0"
#1322063645197
1"
b10110100000000000000000 !
#1322063853557
0"
#1322088273349
1"
b110001100000000000000000 !
#1322096732765
0"
#1322108900989
1"
b11001100000000000000000 !
#1322109151021
0"
#1322125528117
1"
b11000100000000000000000 !
#1322125903165
0"
#1322150156269
1"
b110001110000000000000000 !
#1322152406557
0"
#1322170783909
1"
b11011100000000000000000 !
#1322171492333
0"
#1322187411037
1"
b11010100000000000000000 !
#1322192620037
0"
#1322212039189
1"
b110010000000000000000000 !
#1322214164461
0"
#1322232666829
1"
b11101100000000000000000 !
#1322232875189
0"
#1322249543989
1"
b11100100000000000000000 !
#1322249919037
0"
#1322274172141
1"
b110010010000000000000000 !
#1322274505517
0"
#1322294799781
1"
b11111100000000000000000 !
#1322295424861
0"
#1322311426909
1"
b11110100000000000000000 !
#1322319427933
0"
#1322338680397
1"
b110011010000000000000000 !
#1322341014029
0"
#1322351307013
b110011010000000100000000 !
#1322356557685
b110101100000000100000000 !
1"
#1322359641413
0"
#1322376810277
b110101100000000000000000 !
#1322382060949
b110100010000000000000000 !
1"
#1322382519341
0"
#1322394687565
b110100010000000100000000 !
#1322399938237
b110101110000000100000000 !
1"
#1322400271613
0"
#1322420065813
b110101110000000000000000 !
#1322425316485
b110101010000000000000000 !
1"
#1322430775517
0"
#1322437943101
b110101010000000100000000 !
#1322443193773
b110110000000000100000000 !
1"
#1322444027213
0"
#1397978111005
b110110000000000000000000 !
#1397983361677
b101110100000000000000000 !
1"
#1397983653381
0"
#1398003989317
1"
b1100000000000000000 !
#1398004906101
0"
#1398020616445
1"
b100000000000000000 !
#1398020949821
0"
#1398045244597
1"
b101110110000000000000000 !
#1398045702989
0"
#1398065872237
1"
b11100000000000000000 !
#1398066288957
0"
#1398082499365
1"
b10100000000000000000 !
#1398082916085
0"
#1398107127517
1"
b101111000000000000000000 !
#1398108044301
0"
#1398127880173
1"
b101100000000000000000 !
#1398131672325
0"
#1398144507301
1"
b100100000000000000000 !
#1398147132637
0"
#1398169260469
1"
b101111010000000000000000 !
#1398169927221
0"
#1398189888109
1"
b111100000000000000000 !
#1398190013125
0"
#1398206515237
1"
b110100000000000000000 !
#1398206765269
0"
#1398231268405
1"
b101111100000000000000000 !
#1398231643453
0"
#1398251896045
1"
b1001100000000000000000 !
#1398258480221
0"
#1398268523173
1"
b1000100000000000000000 !
#1398269231597
0"
#1398293151325
1"
b101111110000000000000000 !
#1398298693701
0"
#1398313778965
1"
b1011100000000000000000 !
#1398314154013
0"
#1398330406093
1"
b1010100000000000000000 !
#1398330739469
0"
#1398355159261
1"
b110000000000000000000000 !
#1398355992701
0"
#1398375786901
1"
b1101100000000000000000 !
#1398375911917
0"
#1398392414029
1"
b1100100000000000000000 !
#1398392622389
0"
#1398417042181
1"
b110000010000000000000000 !
#1398425501597
0"
#1398437669821
1"
b1111100000000000000000 !
#1398437919853
0"
#1398454296949
1"
b1110100000000000000000 !
#1398454671997
0"
#1398478925101
1"
b110000100000000000000000 !
#1398481175389
0"
#1398499552741
1"
b10001100000000000000000 !
#1398500261165
0"
#1398516179869
1"
b10000100000000000000000 !
#1398521388869
0"
#1398540808021
1"
b110000110000000000000000 !
#1398542933293
0"
#1398561560677
1"
b10011100000000000000000 !
#1398562019069
0"
#1398578187805
1"
b10010100000000000000000 !
#1398578687869
0"
#1398602815957
1"
b110001000000000000000000 !
#1398603274349
0"
#1398623443597
1"
b10101100000000000000000 !
#1398624193693
0"
#1398640070725
1"
b10100100000000000000000 !
#1398648196765
0"
#1398664698877
1"
b110001010000000000000000 !
#1398665615661
0"
#1398685326517
1"
b10111100000000000000000 !
#1398688410245
0"
#1398701953645
1"
b10110100000000000000000 !
#1398703870557
0"
#1398726581797
1"
b110001100000000000000000 !
#1398727206877
0"
#1398747334453
1"
b11001100000000000000000 !
#1398900020661
0"
#1398912605605
1"
b11000100000000000000000 !
#1399072834445
0"
#1399082252317
1"
b110001110000000000000000 !
#1399245648229
0"
#1399255274461
1"
b11011100000000000000000 !
#1399418462013
0"
#1399427796541
1"
b11010100000000000000000 !
#1399591275797
0"
#1399601068717
1"
b110010000000000000000000 !
#1399764089581
0"
#1399774090861
1"
b11101100000000000000000 !
#1399936903365
0"
#1399946612941
1"
b11100100000000000000000 !
#1400109717149
0"
#1400119885117
1"
b110010010000000000000000 !
#1400282530933
0"
#1400295407581
1"
b11111100000000000000000 !
#1400455344717
0"
#1400467929661
1"
b11110100000000000000000 !
#1400628158501
0"
#1400640076693
1"
b110011010000000000000000 !
#1400800972285
0"
#1400808598261
b110011010000000100000000 !
#1400813848933
b110101100000000100000000 !
1"
#1400973786069
0"
#1400978995069
b110101100000000000000000 !
#1400984245741
b110100010000000000000000 !
1"
#1401146599853
0"
#1401152767309
b110100010000000100000000 !
#1401158017981
b110101110000000100000000 !
1"
#1401319413637
0"
#1401326789581
b110101110000000000000000 !
#1401332040253
b110101010000000000000000 !
1"
#1401492227421
0"
#1401496936357
b110101010000000100000000 !
#1401502187029
b110110000000000100000000 !
1"
#1401665041205
0"
