cores/cps15/ver/game/wof_coin.vcd
$comment
TOOL:	simvision	15.20-s050
$end

$date
    Nov 20, 2020 07:33:52
$end

$timescale
    1ps
$end


$scope module mist_test $end

$scope module UUT $end

$scope module u_game $end

$scope module u_sound $end
$var wire 24 ! cpu2dsp0 [23:0] $end
$upscope $end

$upscope $end

$upscope $end

$upscope $end

$enddefinitions $end
#0
$dumpvars
b0 !
$end
#1321104772477
b110111100000000000000000 !
#1321155653989
b110111110000000000101110 !
#1321195659109
b111000000000000000000000 !
#1321239289693
b111000010000000000110000 !
#1321279294813
b111001000011111111111111 !
#1321323175429
b111001010011111111111111 !
#1321363180549
b111001100011111111111111 !
#1321406811133
b111001110011111111111111 !
#1321446816253
b111000101111111111111111 !
#1321486821373
b110110100000110110110010 !
#1321530451957
b110111000000111000010001 !
#1321574207557
b111000110000000000111001 !
#1321615462837
b101110100000000000000000 !
#1321657843261
b1100000000000000000 !
#1321699848637
b100000000000000000 !
#1321738978645
b101110110000000000000000 !
#1321781359069
b11100000000000000000 !
#1321823614477
b10100000000000000000 !
#1321884497269
b101111000000000000000000 !
#1321926877693
b101100000000000000000 !
#1321968883069
b100100000000000000000 !
#1322011638541
b101111010000000000000000 !
#1322050393501
b111100000000000000000 !
#1322092398877
b110100000000000000000 !
#1322135154349
b101111100000000000000000 !
#1322177534773
b1001100000000000000000 !
#1322219665165
b1000100000000000000000 !
#1322258795173
b101111110000000000000000 !
#1322301175597
b1011100000000000000000 !
#1322343180973
b1010100000000000000000 !
#1322385936445
b110000000000000000000000 !
#1322424691405
b1101100000000000000000 !
#1322466696781
b1100100000000000000000 !
#1322509452253
b110000010000000000000000 !
#1322551832677
b1111100000000000000000 !
#1322593838053
b1110100000000000000000 !
#1322632968061
b110000100000000000000000 !
#1322675348485
b10001100000000000000000 !
#1322717353861
b10000100000000000000000 !
#1322760109333
b110000110000000000000000 !
#1322802489757
b10011100000000000000000 !
#1322844495133
b10010100000000000000000 !
#1322883625141
b110001000000000000000000 !
#1322926005565
b10101100000000000000000 !
#1322968010941
b10100100000000000000000 !
#1323010891429
b110001010000000000000000 !
#1323049646389
b10111100000000000000000 !
#1323091651765
b10110100000000000000000 !
#1323134407237
b110001100000000000000000 !
#1323176787661
b11001100000000000000000 !
#1323218793037
b11000100000000000000000 !
#1323257923045
b110001110000000000000000 !
#1323300428485
b11011100000000000000000 !
#1323342433861
b11010100000000000000000 !
#1323385189333
b110010000000000000000000 !
#1323427569757
b11101100000000000000000 !
#1323465949669
b11100100000000000000000 !
#1323508705141
b110010010000000000000000 !
#1323551085565
b11111100000000000000000 !
#1323593090941
b11110100000000000000000 !
#1323634721269
b110011010000000000000000 !
#1323674351341
b110101100000000000000001 !
#1323717856909
b110100010000000000000000 !
#1323757486981
b110101110000000000000001 !
#1323800992549
b110101010000000000000000 !
#1323840622621
b110110000000000000000001 !
#1397986362061
b101110100000000000000000 !
#1398006989701
b1100000000000000000 !
#1398045369613
b100000000000000000 !
#1398084499621
b101110110000000000000000 !
#1398126880045
b11100000000000000000 !
#1398168885421
b10100000000000000000 !
#1398211640893
b101111000000000000000000 !
#1398254146333
b101100000000000000000 !
#1398292526245
b100100000000000000000 !
#1398335281717
b101111010000000000000000 !
#1398377662141
b111100000000000000000 !
#1398419667517
b110100000000000000000 !
#1398462422989
b101111100000000000000000 !
#1398501177949
b1001100000000000000000 !
#1398543183325
b1000100000000000000000 !
#1398586063813
b101111110000000000000000 !
#1398628444237
b1011100000000000000000 !
#1398670449613
b1010100000000000000000 !
#1398709579621
b110000000000000000000000 !
#1398751960045
b1101100000000000000000 !
#1398793965421
b1100100000000000000000 !
#1398836720893
b110000010000000000000000 !
#1398875475853
b1111100000000000000000 !
#1398917481229
b1110100000000000000000 !
#1398960236701
b110000100000000000000000 !
#1399002617125
b10001100000000000000000 !
#1399044622501
b10000100000000000000000 !
#1399083752509
b110000110000000000000000 !
#1399126132933
b10011100000000000000000 !
#1399168138309
b10010100000000000000000 !
#1399211018797
b110001000000000000000000 !
#1399253399221
b10101100000000000000000 !
#1399291779133
b10100100000000000000000 !
#1399334534605
b110001010000000000000000 !
#1399376915029
b10111100000000000000000 !
#1399418920405
b10110100000000000000000 !
#1399461675877
b110001100000000000000000 !
#1399500430837
b11001100000000000000000 !
#1399542686245
b11000100000000000000000 !
#1399585441717
b110001110000000000000000 !
#1399627822141
b11011100000000000000000 !
#1399669952533
b11010100000000000000000 !
#1399709082541
b110010000000000000000000 !
#1399751462965
b11101100000000000000000 !
#1399793468341
b11100100000000000000000 !
#1399836223813
b110010010000000000000000 !
#1399874978773
b11111100000000000000000 !
#1399916984149
b11110100000000000000000 !
#1399958614477
b110011010000000000000000 !
#1400001870013
b110101100000000000000001 !
#1400042125165
b110100010000000000000000 !
#1400085380701
b110101110000000000000001 !
#1400125260805
b110101010000000000000000 !
#1400168516341
b110110000000000000000001 !
#6998704037173
b101110100000000000000000 !
#6998739166669
b1100000000000000000 !
#6998781172045
b100000000000000000 !
#6998820302053
b101110110000000000000000 !
#6998862682477
b11100000000000000000 !
#6998904687853
b10100000000000000000 !
#6998947568341
b101111000000000000000000 !
#6998986323301
b101100000000000000000 !
#6999028328677
b100100000000000000000 !
#6999071334181
b101111010000000000000000 !
#6999113714605
b111100000000000000000 !
#6999155719981
b110100000000000000000 !
#6999194975005
b101111100000000000000000 !
#6999237605461
b1001100000000000000000 !
#6999279610837
b1000100000000000000000 !
#6999322366309
b101111110000000000000000 !
#6999361121269
b1011100000000000000000 !
#6999403126645
b1010100000000000000000 !
#6999445882117
b110000000000000000000000 !
#6999488387557
b1101100000000000000000 !
#6999530392933
b1100100000000000000000 !
#6999569522941
b110000010000000000000000 !
#6999611903365
b1111100000000000000000 !
#6999653908741
b1110100000000000000000 !
#6999696664213
b110000100000000000000000 !
#6999735419173
b10001100000000000000000 !
#6999777424549
b10000100000000000000000 !
#6999820180021
b110000110000000000000000 !
#6999862560445
b10011100000000000000000 !
#6999904815853
b10010100000000000000000 !
#6999943945861
b110001000000000000000000 !
#6999986326285
b10101100000000000000000 !
#7000028331661
b10100100000000000000000 !
#7000071087133
b110001010000000000000000 !
#7000113467557
b10111100000000000000000 !
#7000151847469
b10110100000000000000000 !
#7000194602941
b110001100000000000000000 !
#7000236983365
b11001100000000000000000 !
#7000278988741
b11000100000000000000000 !
#7000321744213
b110001110000000000000000 !
#7000360499173
b11011100000000000000000 !
#7000402504549
b11010100000000000000000 !
#7000445260021
b110010000000000000000000 !
#7000487640445
b11101100000000000000000 !
#7000529645821
b11100100000000000000000 !
#7000568900845
b110010010000000000000000 !
#7000611531301
b11111100000000000000000 !
#7000653536677
b11110100000000000000000 !
#7000695292021
b110011010000000000000000 !
#7000734922093
b110101100000000000000001 !
#7000778427661
b110100010000000000000000 !
#7000821683197
b110101110000000000000001 !
#7000861563301
b110101010000000000000000 !
#7000925196445
b110110000000000000000001 !
#7965510647581
b101110100000000000000000 !
#7965549402541
b1100000000000000000 !
#7965587782453
b100000000000000000 !
#7965631288021
b100000000000000100100000 !
#7965956579653
b101110110000000000000000 !
#7966006211005
b11100000000000000000 !
#7966048341397
b10100000000000000000 !
#7966088221501
b100000010000000100100000 !
#7966413638149
b101111000000000000000000 !
#7966463269501
b101100000000000000000 !
#7966505274877
b100100000000000000000 !
#7966548780445
b100000100000000100100000 !
#7966874447125
b101111010000000000000000 !
#7966920453013
b111100000000000000000 !
#7966962458389
b110100000000000000000 !
#7967005963957
b100000110000000100100000 !
#7967331380605
b101111100000000000000000 !
#7967381011957
b1001100000000000000000 !
#7967423392381
b1000100000000000000000 !
#7967463522517
b100001000000000100100000 !
#7967788814149
b101111110000000000000000 !
#7967838445501
b1011100000000000000000 !
#7967880450877
b1010100000000000000000 !
#7967920455997
b100001010000000100100000 !
#7968245747629
b110000000000000000000000 !
#7968295378981
b1101100000000000000000 !
#7968337384357
b1100100000000000000000 !
#7968377639509
b100001100000000100100000 !
#7968703181173
b110000010000000000000000 !
#7968752812525
b1111100000000000000000 !
#7968794817901
b1110100000000000000000 !
#7968838323469
b100001110000000100100000 !
#7969184117725
b110000100000000000000000 !
#7969211996293
b10001100000000000000000 !
#7969254001669
b10000100000000000000000 !
#7969293881773
b100010000000000100100000 !
#7969619423437
b110000110000000000000000 !
#7969669054789
b10011100000000000000000 !
#7969711060165
b10010100000000000000000 !
#7969754565733
b100010010000000100100000 !
#7970080857493
b110001000000000000000000 !
#7970126863381
b10101100000000000000000 !
#7970168993773
b10100100000000000000000 !
#7970212499341
b100010100000000100100000 !
#7973764078885
b100000000000000000 !
#7973791707421
b10000000000000000 !
#7973832462637
b1010110001010111010 !
#7973875968205
b1000001001110101110 !
#7973918348629
b11110001000000000011000 !
#7974355654597
b100000000000000000 !
#7974373906933
b100100110010011111111111 !
#7974417537517
b110110010000011111111111 !
#7974457542637
b101110100000000000000000 !
#7974501673285
b10000000000000000 !
#7974542178469
b111000000000000000 !
#7974866594989
b1100000010100111010 !
#7974972858589
b100011001011000000 !
#7975750333093
b10100000000000000000 !
#7975792338469
b10010000000000000000 !
#7975833093685
b11010110001010111010 !
#7975872723757
b11000001001110101110 !
#7975915104181
b1000000000011000 !
#7976352535165
b10100000000000000000 !
#7976374412965
b100100110010011111111111 !
#7976414418085
b110110010000011111111111 !
#7976458173685
b101110110000000000000000 !
#7976498928901
b10010000000000000000 !
#7976539434085
b10111000000000000000 !
#7976863475557
b11100000010100111010 !
#7976969239093
b10100010011000000000 !
#7977860353141
b100100000000000000000 !
#7977887856661
b100010000001111000000 !
#7977914110021
b101010100101111000001 !
#7977957365557
b101000011100111010110 !
#7977996120517
b10001000000000010101 !
#7978433676517
b100100000000000000000 !
#7978455554317
b100100110010011111111111 !
#7978499184901
b110110010000011111111111 !
#7978539190021
b101111000010000110001000 !
#7978579695205
b100010000001111000000 !
#7978623825853
b100111000000000000000 !
#7978947992341
b101100000010100111010 !
#7979035378525
b100100000001011010100 !
#7979905114837
b110100000000000000000 !
#7979954371141
b110010000001010000010 !
#7979995376389
b111010100110000101010 !
#7980038631925
b111000010111110011101 !
#7980081012349
b100001000000000010110 !
#7980462311149
b110100000000000000000 !
#7980495065341
b100100110010011111111111 !
#7980538695925
b110110010000011111111111 !
#7980578826061
b101111010010000110001000 !
#7980619331245
b110010000001010000010 !
#7980663586909
b110111000000000000000 !
#7980987628381
b111100000010100111010 !
#7981105393453
b110100000100000000000 !
#7981895744605
b1000100000000000000000 !
#7981923498157
b1000011000000111110100 !
#7981953501997
b1001011100101100001100 !
#7981997132581
b1001000011100010000101 !
#7982036137573
b110001000000000010101 !
#7982417061325
b1000100000000000000000 !
#7982453440981
b100100110010011111111111 !
#7982493446101
b110110010000011111111111 !
#7982537201701
b101111100000101001010000 !
#7982577706885
b1000011000000111110100 !
#7982618212069
b1000111000000000000000 !
#7982942378557
b1001100000010101010111 !
#7983034765381
b1000100000010000000000 !
#7983812864965
b1010100000000000000000 !
#7983840493501
b1010011000000100000000 !
#7983870497341
b1011011110011110001000 !
#7983910252429
b1011000100001101100001 !
#7983952632853
b1000001000000000011000 !
#7984333306573
b1010100000000000000000 !
#7984369686229
b100100110010011111111111 !
#7984409816365
b110110010000011111111111 !
#7984453446949
b101111110000101001010000 !
#7984494077149
b1010011000000100000000 !
#7984534582333
b1010111000000000000000 !
#7984859248885
b1011100000010101110110 !
#7984955761237
b1010100000110010110000 !
#7985810620645
b1100100000000000000000 !
#7985838249181
b1100010000000000000000 !
#7985868253021
b1101010111001101011101 !
#7985908008109
b1101000000000000001110 !
#7985950388533
b1010001000000000011010 !
#7986389069677
b1100100000000000000000 !
#7986407322013
b100100110010011111111111 !
#7986450952597
b110110010000011111111111 !
#7986491082733
b110000000000000000000000 !
#7986535213381
b1100010000000000000000 !
#7986575843581
b1100111000000000000000 !
#7986901010197
b1101100000110110000100 !
#7987002398173
b1100100001000111100000 !
#7987859007805
b10000100000000000000000 !
#7987908264109
b10000010000000000000000 !
#7987949019325
b10001010111010101011001 !
#7987992274861
b10001000101000101010001 !
#7988031279853
b1110001000000000010111 !
#7988504340397
b10000100000000000000000 !
#7988533719157
b100100110010011111111111 !
#7988573724277
b110110010000011111111111 !
#7988617354861
b110000100000000000000000 !
#7988657860045
b10000010000000000000000 !
#7988698365229
b10000111000000000000000 !
#7989023406829
b10001100000010101110110 !
#7989140421805
b10000100000110010110000 !
#7989919896565
b10010100000000000000000 !
#7989947400085
b10010010000000000000000 !
#7989988155301
b10011010111011111100010 !
#7990031410837
b10011000100001010111110 !
#7990073916277
b10000001000000000010010 !
#7990896646573
b10100100000000000000000 !
#7990945902877
b10100010000000000000000 !
#7990990283557
b10101010111011111100010 !
#7991029913629
b10101000100001010111110 !
#7991072544085
b10010001000000000010010 !
#7991394085237
b10100100000000000000000 !
#7991412337573
b100100110010011111111111 !
#7991448717229
b110110010000011111111111 !
#7991488722349
b110001000010000110001000 !
#7991529227533
b10100010000000000000000 !
#7991573358181
b10100111000000000000000 !
#7991897399653
b10101100000010000101001 !
#7991994037021
b10100100000111001000000 !
#7993271575525
b1100000010100111010 !
#7993377964141
b100011001011000000 !
#7993880028397
b11100000010100111010 !
#7993986166981
b10100010011000000000 !
#7994488481269
b101100000010100111010 !
#7994575617421
b100100000001011010100 !
#7995078056725
b111100000010100111010 !
#7995175069141
b110100000100000000000 !
#7995677008381
b1001100000010101010111 !
#7995768770125
b1000100000010000000000 !
#7996271084413
b1011100000010101110110 !
#7996367846797
b1010100000110010110000 !
#7996870161085
b1101100000110110000100 !
#7996971799093
b1100100001000111100000 !
#7997615381461
b10001100000010101110110 !
#7997712143845
b10000100000110010110000 !
#7998328097677
b10101100000010000011101 !
#7998425110093
b10100100000111001000000 !
#8005562523565
b1100000010001011111 !
#8005668912181
b100011001011000000 !
#8006180727685
b11100000010001011111 !
#8006286741253
b10100010011000000000 !
#8006797931677
b101100000010100011011 !
#8006885317861
b100100000001011010100 !
#8007396758317
b111100000010100100101 !
#8007493895749
b110100000100000000000 !
#8008004711125
b1001100000010101000010 !
#8008096972933
b1000100000010000000000 !
#8008608663421
b1011100000010101110110 !
#8008705175773
b1010100000110010110000 !
#8009236118725
b1101100000110110000100 !
#8009337381685
b1100100001000111100000 !
#8009969587597
b10001100000010101101011 !
#8010066099949
b10000100000110010110000 !
#8010646424221
b10101100000010000010001 !
#8010742936573
b10100100000111001000000 !
#8021525316541
b1100000010001011111 !
#8021631455125
b100011001011000000 !
#8022102515413
b11100000010001011111 !
#8022208779013
b10100010011000000000 !
#8022678714157
b101100000010100011011 !
#8022765975325
b100100000001011010100 !
#8023236910597
b111100000010100100101 !
#8023333797997
b110100000100000000000 !
#8023803233077
b1001100000010101000010 !
#8023895119837
b1000100000010000000000 !
#8024365305013
b1011100000010101110110 !
#8024462192413
b1010100000110010110000 !
#8024932377589
b1101100000110110000100 !
#8025033765565
b1100100001000111100000 !
#8025645843901
b10001100000010101101011 !
#8025742481269
b10000100000110010110000 !
#8026322805541
b10101100000010000000100 !
#8026419692941
b10100100000111001000000 !
#8037890911069
b101100000010100011011 !
#8037978422269
b100100000001011010100 !
#8038449857605
b111100000010100100101 !
#8038546619989
b110100000100000000000 !
#8039016180085
b1001100000010101000010 !
#8039108066845
b1000100000010000000000 !
#8039578877101
b1011100000010101110110 !
#8039675889517
b1010100000110010110000 !
#8040146574757
b1101100000110110000100 !
#8040248587813
b1100100001000111100000 !
#8040865291741
b10001100000010100011101 !
#8040962429173
b10000100000110010110000 !
#8041563506101
b10101100000001111111000 !
#8041660268485
b10100100000111001000000 !
#8053520161357
b1100000010000010100 !
#8053626424957
b100011001011000000 !
#8054089859269
b11100000010000010100 !
#8054195872837
b10100010011000000000 !
#8054665807981
b101100000010100011011 !
#8054753444197
b100100000001011010100 !
#8055224254453
b111100000010100100101 !
#8055321266869
b110100000100000000000 !
#8055791076997
b1001100000010101000010 !
#8055883213789
b1000100000010000000000 !
#8056353648997
b1011100000010101110110 !
#8056450411381
b1010100000110010110000 !
#8056920596557
b1101100000110110000100 !
#8057021984533
b1100100001000111100000 !
#8057625061717
b10001100000010011001111 !
#8057722199149
b10000100000110010110000 !
#8058302898469
b10101100000001111101100 !
#8058399410821
b10100100000111001000000 !
#8069527460029
b1100000001111001001 !
#8069633973661
b100011001011000000 !
#8070095282701
b11100000001111001001 !
#8070201421285
b10100010011000000000 !
#8070672231541
b101100000010100011011 !
#8070759867757
b100100000001011010100 !
#8071230803029
b111100000010100100101 !
#8071327315381
b110100000100000000000 !
#8071797500557
b1001100000010101000010 !
#8071889512333
b1000100000010000000000 !
#8072360947669
b1011100000010101110110 !
#8072457710053
b1010100000110010110000 !
#8072928895357
b1101100000110110000100 !
#8073030783397
b1100100001000111100000 !
#8073633360517
b10001100000010010000001 !
#8073730122901
b10000100000110010110000 !
#8074309697077
b10101100000001111011111 !
#8074406334445
b10100100000111001000000 !
#8085525007453
b1100000001101111111 !
#8085631521085
b100011001011000000 !
#8086093330189
b11100000001101111111 !
#8086200093853
b10100010011000000000 !
#8086696157341
b101100000010011010000 !
#8086783168477
b100100000001011010100 !
#8087279857045
b111100000010011011011 !
#8087376494413
b110100000100000000000 !
#8087871432757
b1001100000010100000010 !
#8087963194501
b1000100000010000000000 !
#8088459007957
b1011100000010100110101 !
#8088556020373
b1010100000110010110000 !
#8089026330565
b1101100000110110000100 !
#8089148846245
b1100100001000111100000 !
#8089730045629
b10001100000010000110011 !
#8089826933029
b10000100000110010110000 !
#8090407632349
b10101100000001111010011 !
#8090504519749
b10100100000111001000000 !
#8101331780461
b100000000000000000 !
#8101371785581
b100100110010011111111111 !
#8101415416165
b110110010000011111111111 !
#8101455546301
b101110100000000000000000 !
#8101499676949
b10000000000000000 !
#8101540182133
b111000000000000000 !
#8101865348749
b1100000010100111010 !
#8101971987397
b100011001011000000 !
#8102397166813
b10100000000000000000 !
#8102415419149
b100100110010011111111111 !
#8102455424269
b110110010000011111111111 !
#8102499054853
b101110110000000000000000 !
#8102539560037
b10010000000000000000 !
#8102580065221
b10111000000000000000 !
#8102905231837
b11100000010100111010 !
#8103011870485
b10100010011000000000 !
#8103437049901
b100100000000000000000 !
#8103455302237
b100100110010011111111111 !
#8103495307357
b110110010000011111111111 !
#8103539062957
b101111000010000110001000 !
#8103579568141
b100010000001111000000 !
#8103620198341
b100111000000000000000 !
#8103946115053
b101100000010100111010 !
#8104033626253
b100100000001011010100 !
#8104458305605
b110100000000000000000 !
#8104494685261
b100100110010011111111111 !
#8104538315845
b110110010000011111111111 !
#8104578445981
b101111010010000110001000 !
#8104622826661
b110010000001010000010 !
#8104663331845
b110111000000000000000 !
#8104988248429
b111100000010100111010 !
#8105106013501
b110100000100000000000 !
#8105530942885
b1000100000000000000000 !
#8105578198933
b100100110010011111111111 !
#8105621954533
b110110010000011111111111 !
#8105662084669
b101111100000101001010000 !
#8105702589853
b1000011000000111110100 !
#8105746720501
b1000111000000000000000 !
#8106072012133
b1001100000010101010111 !
#8106163773877
b1000100000010000000000 !
#8106588953293
b1010100000000000000000 !
#8106618207037
b100100110010011111111111 !
#8106661837621
b110110010000011111111111 !
#8106702092773
b101111110000101001010000 !
#8106746223421
b1010011000000100000000 !
#8106786728605
b1010111000000000000000 !
#8107112145253
b1011100000010101110110 !
#8107209157669
b1010100000110010110000 !
#8107760603245
b1100100000000000000000 !
#8107786231525
b100100110010011111111111 !
#8107826236645
b110110010000011111111111 !
#8107869992245
b110000000000000000000000 !
#8107910622445
b1100010000000000000000 !
#8107951127629
b1100111000000000000000 !
#8108276919325
b1101100000110110000100 !
#8108378682349
b1100100001000111100000 !
#8108925877381
b10000100000000000000000 !
#8108951505661
b100100110010011111111111 !
#8108991635797
b110110010000011111111111 !
#8109035391397
b110000100000000000000000 !
#8109078146869
b10000010000000000000000 !
#8109118652053
b10000111000000000000000 !
#8109443443621
b10001100000010101110110 !
#8109540581053
b10000100000110010110000 !
#8110281675901
b10101100000001111000110 !
#8110378313269
b10100100000111001000000 !
#8117570608765
b1100000010100111010 !
#8117677247413
b100011001011000000 !
#8118179186653
b11100000010100111010 !
#8118284950189
b10100010011000000000 !
#8118787514509
b101100000010100111010 !
#8118874525645
b100100000001011010100 !
#8119376839933
b111100000010100111010 !
#8119474102381
b110100000100000000000 !
#8119975666573
b1001100000010101010111 !
#8120068178413
b1000100000010000000000 !
#8120570492701
b1011100000010101110110 !
#8120667380101
b1010100000110010110000 !
#8121191197141
b1101100000110110000100 !
#8121292460101
b1100100001000111100000 !
#8121916790005
b10001100000010101110110 !
#8122014177469
b10000100000110010110000 !
#8122594626757
b10101100000001110111010 !
#8122691514157
b10100100000111001000000 !
#8133581157853
b1100000010001011111 !
#8133687421453
b100011001011000000 !
#8134198861909
b11100000010001011111 !
#8134305000493
b10100010011000000000 !
#8134816065901
b101100000010100011011 !
#8134903827133
b100100000001011010100 !
#8135413767397
b111100000010100100101 !
#8135510404765
b110100000100000000000 !
#8136020720077
b1001100000010101000010 !
#8136112481821
b1000100000010000000000 !
#8136623422213
b1011100000010101110110 !
#8136720184597
b1010100000110010110000 !
#8137251377581
b1101100000110110000100 !
#8137352890573
b1100100001000111100000 !
#8137984846453
b10001100000010101101011 !
#8138081608837
b10000100000110010110000 !
#8138663558317
b10101100000001110101110 !
#8138760195685
b10100100000111001000000 !
#8149546451149
b1100000010001011111 !
#8149653839893
b100011001011000000 !
#8150125400245
b11100000010001011111 !
#8150231538829
b10100010011000000000 !
#8150701473973
b101100000010100011011 !
#8150788610125
b100100000001011010100 !
#8151259045333
b111100000010100100101 !
#8151355807717
b110100000100000000000 !
#8151825617845
b1001100000010101000010 !
#8151917754637
b1000100000010000000000 !
#8152388564893
b1011100000010101110110 !
#8152485327277
b1010100000110010110000 !
#8152956512581
b1101100000110110000100 !
#8153078278165
b1100100001000111100000 !
#8153670228925
b10001100000010101101011 !
#8153767241341
b10000100000110010110000 !
#8154348565741
b10101100000001110100001 !
#8154445828189
b10100100000111001000000 !
#8165908045165
b101100000010100011011 !
#8165995556365
b100100000001011010100 !
#8166467741797
b111100000010100100101 !
#8166564629197
b110100000100000000000 !
#8167034189293
b1001100000010101000010 !
#8167125951037
b1000100000010000000000 !
#8167596511261
b1011100000010101110110 !
#8167693148629
b1010100000110010110000 !
#8168163083773
b1101100000110110000100 !
#8168264471749
b1100100001000111100000 !
#8168881300693
b10001100000010100011101 !
#8168977938061
b10000100000110010110000 !
#8169578889973
b10101100000001110010101 !
#8169675652357
b10100100000111001000000 !
#8181540420853
b1100000010000010100 !
#8181646559437
b100011001011000000 !
#8182107868477
b11100000010000010100 !
#8182214507125
b10100010011000000000 !
#8182685067349
b101100000010100011011 !
#8182772703565
b100100000001011010100 !
#8183244638965
b111100000010100100101 !
#8183341776397
b110100000100000000000 !
#8183811711541
b1001100000010101000010 !
#8183903848333
b1000100000010000000000 !
#8184373783477
b1011100000010101110110 !
#8184470795893
b1010100000110010110000 !
#8184941481133
b1101100000110110000100 !
#8185042994125
b1100100001000111100000 !
#8185645821277
b10001100000010011001111 !
#8185742333629
b10000100000110010110000 !
#8186322407869
b10101100000001110001001 !
#8186419170253
b10100100000111001000000 !
#8197541843773
b1100000001111001001 !
#8197647857341
b100011001011000000 !
#8198109791461
b11100000001111001001 !
#8198215680013
b10100010011000000000 !
#8198685615157
b101100000010100011011 !
#8198772876325
b100100000001011010100 !
#8199242936485
b111100000010100100101 !
#8199340824013
b110100000100000000000 !
#8199811884301
b1001100000010101000010 !
#8199904771189
b1000100000010000000000 !
#8200375206397
b1011100000010101110110 !
#8200472093797
b1010100000110010110000 !
#8200942403989
b1101100000110110000100 !
#8201043916981
b1100100001000111100000 !
#8201647619245
b10001100000010010000001 !
#8201744381629
b10000100000110010110000 !
#8202324205837
b10101100000001101111100 !
#8202420718189
b10100100000111001000000 !
#8213540516341
b1100000001101111111 !
#8213646654925
b100011001011000000 !
#8214108213997
b11100000001101111111 !
#8214214102549
b10100010011000000000 !
#8214710041021
b101100000010011010000 !
#8214797427205
b100100000001011010100 !
#8215292490565
b111100000010011011011 !
#8215389377965
b110100000100000000000 !
#8215883816245
b1001100000010100000010 !
#8215975703005
b1000100000010000000000 !
#8216472141541
b1011100000010100110101 !
#8216569654021
b1010100000110010110000 !
#8217040839325
b1101100000110110000100 !
#8217162854941
b1100100001000111100000 !
#8217744679405
b10001100000010000110011 !
#8217841816837
b10000100000110010110000 !
#8218422891205
b10101100000001101110000 !
#8218519528573
b10100100000111001000000 !
#8229348039445
b100000000000000000 !
#8229369917245
b100100110010011111111111 !
#8229413672845
b110110010000011111111111 !
#8229453677965
b101110100000000000000000 !
#8229494183149
b10000000000000000 !
#8229538563829
b111000000000000000 !
#8229862980349
b1100000010100111010 !
#8229969243949
b100011001011000000 !
#8230394298349
b10100000000000000000 !
#8230412550685
b100100110010011111111111 !
#8230452555805
b110110010000011111111111 !
#8230496186389
b101110110000000000000000 !
#8230536691573
b10010000000000000000 !
#8230577196757
b10111000000000000000 !
#8230902238357
b11100000010100111010 !
#8231008376941
b10100010011000000000 !
#8231432931277
b100100000000000000000 !
#8231451183613
b100100110010011111111111 !
#8231494814197
b110110010000011111111111 !
#8231534819317
b101111000010000110001000 !
#8231578949965
b100010000001111000000 !
#8231619455149
b100111000000000000000 !
#8231944371733
b101100000010100111010 !
#8232031507885
b100100000001011010100 !
#8232456062221
b110100000000000000000 !
#8232492441877
b100100110010011111111111 !
#8232536072461
b110110010000011111111111 !
#8232576202597
b101111010010000110001000 !
#8232616707781
b110010000001010000010 !
#8232660838429
b110111000000000000000 !
#8232987505237
b111100000010100111010 !
#8233105395325
b110100000100000000000 !
#8233532074933
b1000100000000000000000 !
#8233575955549
b100100110010011111111111 !
#8233615960669
b110110010000011111111111 !
#8233659591253
b101111100000101001010000 !
#8233700096437
b1000011000000111110100 !
#8233744227085
b1000111000000000000000 !
#8234068893637
b1001100000010101010111 !
#8234161030429
b1000100000010000000000 !
#8234585209717
b1010100000000000000000 !
#8234618088925
b100100110010011111111111 !
#8234658094045
b110110010000011111111111 !
#8234701724629
b101111110000101001010000 !
#8234742229813
b1010011000000100000000 !
#8234782734997
b1010111000000000000000 !
#8235107901613
b1011100000010101110110 !
#8235204538981
b1010100000110010110000 !
#8235756359605
b1100100000000000000000 !
#8235781862869
b100100110010011111111111 !
#8235825493453
b110110010000011111111111 !
#8235865498573
b110000000000000000000000 !
#8235906003757
b1100010000000000000000 !
#8235950134405
b1100111000000000000000 !
#8236274925973
b1101100000110110000100 !
#8236377064045
b1100100001000111100000 !
#8236923008917
b10000100000000000000000 !
#8236948512181
b100100110010011111111111 !
#8236992142765
b110110010000011111111111 !
#8237032147885
b110000100000000000000000 !
#8237093155693
b10000010000000000000000 !
#8237115533557
b10000111000000000000000 !
#8237440700173
b10001100000010101110110 !
#8237537462557
b10000100000110010110000 !
#8238278682421
b10101100000001101100011 !
#8238375444805
b10100100000111001000000 !
#8245588742989
b1100000010100111010 !
#8245695381637
b100011001011000000 !
#8246197820941
b11100000010100111010 !
#8246303709493
b10100010011000000000 !
#8246806273813
b101100000010100111010 !
#8246893785013
b100100000001011010100 !
#8247395974285
b111100000010100111010 !
#8247492736669
b110100000100000000000 !
#8247994800925
b1001100000010101010111 !
#8248086812701
b1000100000010000000000 !
#8248588501909
b1011100000010101110110 !
#8248685264293
b1010100000110010110000 !
#8249207956189
b1101100000110110000100 !
#8249309469181
b1100100001000111100000 !
#8249935424293
b10001100000010101110110 !
#8250032311693
b10000100000110010110000 !
#8250615386317
b10101100000001101010111 !
#8250712523749
b10100100000111001000000 !
#8261599542109
b1100000010001011111 !
#8261706055741
b100011001011000000 !
#8262217871245
b11100000010001011111 !
#8262323634781
b10100010011000000000 !
#8262834325141
b101100000010100011011 !
#8262922336405
b100100000001011010100 !
#8263433151781
b111100000010100100101 !
#8263530039181
b110100000100000000000 !
#8264041104589
b1001100000010101000010 !
#8264133116365
b1000100000010000000000 !
#8264644431805
b1011100000010101110110 !
#8264740944157
b1010100000110010110000 !
#8265271262029
b1101100000110110000100 !
#8265372650005
b1100100001000111100000 !
#8266004855917
b10001100000010101101011 !
#8266101493285
b10000100000110010110000 !
#8266682817685
b10101100000001101001011 !
#8266780205149
b10100100000111001000000 !
#8277559834765
b1100000010001011111 !
#8277666473413
b100011001011000000 !
#8278136783605
b11100000010001011111 !
#8278243047205
b10100010011000000000 !
#8278713232381
b101100000010100011011 !
#8278800243517
b100100000001011010100 !
#8279270178661
b111100000010100100101 !
#8279367066061
b110100000100000000000 !
#8279835751045
b1001100000010101000010 !
#8279928012853
b1000100000010000000000 !
#8280397822981
b1011100000010101110110 !
#8280494460349
b1010100000110010110000 !
#8280964270477
b1101100000110110000100 !
#8281066033501
b1100100001000111100000 !
#8281678486885
b10001100000010101101011 !
#8281775499301
b10000100000110010110000 !
#8282355823573
b10101100000001100111110 !
#8282452710973
b10100100000111001000000 !
#8293925429293
b101100000010100011011 !
#8294012565445
b100100000001011010100 !
#8294482625605
b111100000010100100101 !
#8294579262973
b110100000100000000000 !
#8295049573165
b1001100000010101000010 !
#8295141334909
b1000100000010000000000 !
#8295610895005
b1011100000010101110110 !
#8295707657389
b1010100000110010110000 !
#8296176717421
b1101100000110110000100 !
#8296278355429
b1100100001000111100000 !
#8296896059485
b10001100000010100011101 !
#8296992821869
b10000100000110010110000 !
#8297593273717
b10101100000001100110010 !
#8297690536165
b10100100000111001000000 !
#8309556929869
b1100000010000010100 !
#8309663193469
b100011001011000000 !
#8310126002701
b11100000010000010100 !
#8310232016269
b10100010011000000000 !
#8310702326461
b101100000010100011011 !
#8310789337597
b100100000001011010100 !
#8311260772933
b111100000010100100101 !
#8311357410301
b110100000100000000000 !
#8311827470461
b1001100000010101000010 !
